TF_NAME	MATRIX_ID	Z_SCORE	P_VALUE	SAMPLE_AVERAGE	BACKGROUND_AVERAGE	SAMPLE_DEVSTD	SAMPLE_SIZE
KLF5	MA0599.1	10.1202	4.21779e-25	0.944072	0.926791	0.054297	1348
SP2	MA0516.1	9.7103	2.57196e-23	0.890625	0.87299	0.0599864	1348
SP1	MA0079.3	9.51013	2.07298e-22	0.925797	0.908975	0.0570741	1348
SP3	MA0746.1	9.5037	2.09611e-22	0.900262	0.88408	0.0558537	1348
KLF16	MA0741.1	9.10195	9.99824e-21	0.88706	0.870111	0.0619691	1348
SP1	MA0079.2	8.91063	6.37975e-20	0.932673	0.918616	0.0516364	1348
EGR1	MA0162.2	8.75304	2.67119e-19	0.884426	0.869468	0.0564418	1348
Klf4	MA0039.2	8.73843	3.11637e-19	0.918345	0.902106	0.0609313	1348
ZNF740	MA0753.1	7.71835	2.11901e-15	0.850969	0.838009	0.0545232	1348
SP8	MA0747.1	7.67424	2.80303e-15	0.881319	0.870051	0.0493929	1348
ZNF263	MA0528.1	7.60473	4.08437e-15	0.835397	0.825375	0.0478317	1348
EGR2	MA0472.1	7.37342	3.07877e-14	0.859161	0.84793	0.0509413	1348
E2F3	MA0469.1	7.34704	3.85954e-14	0.854381	0.841483	0.0580952	1348
TFAP2C(var.3)	MA0815.1	7.32327	4.23829e-14	0.820939	0.808572	0.0583559	1348
TFAP2A(var.3)	MA0872.1	7.28245	5.89659e-14	0.81591	0.803336	0.0592426	1348
TFAP2B(var.3)	MA0813.1	7.15053	1.57345e-13	0.82677	0.815264	0.0558582	1348
INSM1	MA0155.1	7.11372	1.96544e-13	0.865072	0.856791	0.0414707	1348
NFKB1	MA0105.2	7.07546	2.79011e-13	0.822898	0.811815	0.0541657	1348
EGR4	MA0733.1	7.06183	3.38841e-13	0.789645	0.779774	0.0460771	1348
EGR3	MA0732.1	7.04091	3.69497e-13	0.792084	0.779822	0.0595328	1348
TFAP2A	MA0003.1	7.01486	5.08968e-13	0.952841	0.943405	0.0428816	1348
E2F6	MA0471.1	6.95714	6.91215e-13	0.900529	0.889822	0.0524332	1348
E2F4	MA0470.1	6.96443	7.08265e-13	0.879479	0.866868	0.0591141	1348
TFAP2A	MA0003.3	6.87335	1.33698e-12	0.883345	0.873479	0.0476534	1348
ZIC3	MA0697.1	6.82681	1.75807e-12	0.794682	0.785624	0.0456092	1348
KLF14	MA0740.1	6.74006	3.25402e-12	0.828745	0.81772	0.0564524	1348
Klf1	MA0493.1	6.68554	4.89785e-12	0.874749	0.865277	0.048326	1348
SP4	MA0685.1	6.59668	8.84765e-12	0.802889	0.791498	0.0600386	1348
E2F1	MA0024.2	6.60683	8.99272e-12	0.897974	0.887084	0.0544466	1348
PLAG1	MA0163.1	6.57682	1.03312e-11	0.809755	0.800376	0.0491335	1348
RREB1	MA0073.1	6.51287	1.42674e-11	0.804117	0.795466	0.0488648	1348
Egr1	MA0162.1	6.42262	3.04132e-11	0.860689	0.851114	0.0508527	1348
TFAP2A(var.2)	MA0810.1	6.191	1.50171e-10	0.881457	0.872752	0.0464799	1348
SP1	MA0079.1	6.15563	1.81846e-10	0.923193	0.916173	0.0387536	1348
TFAP2B(var.2)	MA0812.1	6.08815	2.87987e-10	0.861963	0.852738	0.0507531	1348
MZF1	MA0056.1	6.06019	3.76884e-10	0.97637	0.969494	0.0355097	1348
EWSR1-FLI1	MA0149.1	5.93954	6.14892e-10	0.697353	0.688264	0.0579872	1348
ZIC1	MA0696.1	5.81175	1.60792e-09	0.781522	0.773636	0.0464312	1348
TFAP2A	MA0003.2	5.74602	2.46988e-09	0.821639	0.813673	0.0465575	1348
NFKB1	MA0105.1	5.60579	5.3069e-09	0.849585	0.841469	0.0518386	1348
ZIC4	MA0751.1	5.60672	5.55469e-09	0.812775	0.805715	0.043389	1348
TFAP2B	MA0811.1	5.60528	5.73748e-09	0.864559	0.85696	0.0458409	1348
TFAP2C	MA0524.1	5.55374	7.86288e-09	0.852927	0.845535	0.0446992	1348
TFAP2C(var.2)	MA0814.1	5.54436	8.41235e-09	0.866885	0.858963	0.0474928	1348
Zfx	MA0146.1	5.48924	1.1203e-08	0.865117	0.855319	0.0612687	1348
EGR2	MA0472.2	5.45681	1.35681e-08	0.815682	0.807375	0.0521786	1348
Zfx	MA0146.2	5.45508	1.36716e-08	0.864733	0.854962	0.0615227	1348
TFAP2C	MA0524.2	5.42125	1.69061e-08	0.860367	0.853055	0.0457201	1348
NFKB2	MA0778.1	5.34109	2.56234e-08	0.764185	0.755841	0.0550446	1348
MZF1(var.2)	MA0057.1	5.06407	1.22743e-07	0.915388	0.910008	0.0368264	1348
Klf12	MA0742.1	5.04005	1.3494e-07	0.816564	0.8094	0.050914	1348
Tcfcp2l1	MA0145.2	4.95877	2.14778e-07	0.841143	0.835631	0.038839	1348
Tcfcp2l1	MA0145.1	4.92983	2.5052e-07	0.841404	0.835927	0.0388312	1348
NFKB1	MA0105.4	4.62615	1.19052e-06	0.729373	0.722263	0.0542157	1348
Pax5	MA0014.1	4.51953	2.01227e-06	0.838882	0.835142	0.0293145	1348
NR2C2	MA0504.1	4.50074	2.24074e-06	0.828452	0.82372	0.0365884	1348
KLF13	MA0657.1	4.42049	3.15836e-06	0.744463	0.739042	0.0449439	1348
GLIS2	MA0736.1	4.35066	4.71511e-06	0.793352	0.787786	0.043253	1348
HINFP	MA0131.2	4.3406	4.79435e-06	0.824946	0.818108	0.0553914	1348
NRF1	MA0506.1	3.9137	3.45524e-05	0.850663	0.84302	0.0634427	1348
NFKB1	MA0105.3	3.82408	4.6721e-05	0.83651	0.831028	0.0527741	1348
THAP1	MA0597.1	3.81362	5.06475e-05	0.924542	0.92132	0.0294315	1348
CTCF	MA0139.1	3.7164	7.62814e-05	0.783166	0.778675	0.0416722	1348
GCM2	MA0767.1	3.65442	9.59366e-05	0.839515	0.835184	0.0424893	1348
NHLH1	MA0048.1	3.39077	0.000272525	0.827257	0.822495	0.0493504	1348
ZBTB7C	MA0695.1	3.29153	0.000400041	0.825999	0.821945	0.0420816	1348
ZBTB7A	MA0750.1	3.18014	0.000600886	0.809353	0.804933	0.0471597	1348
ZNF354C	MA0130.1	3.1746	0.000618516	0.965603	0.962286	0.0346694	1348
RELA	MA0107.1	3.14161	0.000665954	0.830855	0.82621	0.0541428	1348
EBF1	MA0154.1	3.05209	0.000927009	0.880897	0.877004	0.0449824	1348
Myog	MA0500.1	2.9283	0.00140372	0.875894	0.871469	0.0540126	1348
ESR1	MA0112.2	2.80597	0.00210764	0.733689	0.730563	0.0392598	1348
E2F1	MA0024.3	2.79753	0.00217889	0.772824	0.769214	0.0446913	1348
EHF	MA0598.1	2.78237	0.00227491	0.895254	0.890332	0.0622112	1348
Tcfl5	MA0632.1	2.71237	0.00284461	0.896495	0.891707	0.0616691	1348
Myod1	MA0499.1	2.66217	0.00330947	0.866105	0.862276	0.0509078	1348
SPI1	MA0080.1	2.66484	0.00333477	0.980874	0.978326	0.0321844	1348
EBF1	MA0154.2	2.65333	0.00338092	0.871248	0.867655	0.0487689	1348
Znf423	MA0116.1	2.61514	0.00379314	0.829164	0.826011	0.0436478	1348
ZBTB7B	MA0694.1	2.6177	0.00382051	0.799582	0.796094	0.0460382	1348
Tcf3	MA0522.1	2.54955	0.00463218	0.873715	0.870059	0.0515218	1348
ARNT::HIF1A	MA0259.1	2.469	0.00589691	0.894166	0.890055	0.0588526	1348
Tcf12	MA0521.1	2.45556	0.00611741	0.866086	0.862419	0.0531717	1348
E2F1	MA0024.1	2.40075	0.00715746	0.832286	0.828484	0.0563254	1348
NHLH1	MA0048.2	2.39734	0.00718952	0.831045	0.827352	0.0558095	1348
GLIS1	MA0735.1	2.35375	0.00833193	0.704237	0.701324	0.0406108	1348
Mafb	MA0117.1	2.22361	0.0116669	0.92353	0.9213	0.0354305	1348
Pparg::Rxra	MA0065.2	2.18949	0.0127149	0.813888	0.811619	0.0372864	1348
REST	MA0138.1	2.18549	0.0129837	0.744421	0.742119	0.0362312	1348
PAX5	MA0014.2	2.17783	0.0132094	0.815029	0.813061	0.0314786	1348
Erg	MA0474.1	2.13302	0.0146723	0.869447	0.86651	0.0504382	1348
ESR1	MA0112.1	2.11749	0.0153776	0.789096	0.786878	0.0372374	1348
Hes1	MA1099.1	2.04825	0.0185238	0.867893	0.864842	0.0501698	1348
REL	MA0101.1	2.00487	0.0202986	0.872154	0.869667	0.0452928	1348
ZBTB33	MA0527.1	1.92683	0.0249703	0.774405	0.771513	0.0497202	1348
CREB3L1	MA0839.1	1.9097	0.0254233	0.738957	0.736647	0.045389	1348
Ahr::Arnt	MA0006.1	1.81419	0.0320407	0.915934	0.912679	0.0644528	1348
Nkx2-5(var.2)	MA0503.1	1.79893	0.0331255	0.855557	0.85346	0.0422485	1348
HES7	MA0822.1	1.79735	0.0333789	0.732448	0.729702	0.0540823	1348
CREB1	MA0018.1	1.78075	0.0346792	0.843382	0.841087	0.0454328	1348
HEY1	MA0823.1	1.74755	0.0375276	0.808085	0.805066	0.059081	1348
Ascl2	MA0816.1	1.61162	0.0498591	0.838301	0.83595	0.0534284	1348
SMAD2::SMAD3::SMAD4	MA0513.1	1.61244	0.0500555	0.808247	0.80621	0.044457	1348
Mycn	MA0104.2	1.51181	0.0615985	0.839215	0.836938	0.052832	1348
RARA::RXRA	MA0159.1	1.47381	0.0661763	0.799041	0.79765	0.0342785	1348
HIC2	MA0738.1	1.47203	0.0665304	0.90673	0.905024	0.0414727	1348
GLIS3	MA0737.1	1.47628	0.0666187	0.744337	0.742653	0.0373565	1348
Myc	MA0147.1	1.44631	0.0700975	0.842339	0.840379	0.0478274	1348
Ets1	MA0098.2	1.42316	0.0730366	0.834364	0.832561	0.0462909	1348
GCM1	MA0646.1	1.41457	0.0743844	0.806154	0.804497	0.0421918	1348
CENPB	MA0637.1	1.41177	0.0750748	0.784043	0.782602	0.0354829	1348
Klf4	MA0039.1	1.3664	0.0814196	0.920301	0.91899	0.0350445	1348
HES5	MA0821.1	1.34588	0.0849338	0.749688	0.747707	0.0519255	1348
E2F8	MA0865.1	1.3372	0.0860124	0.734074	0.732308	0.0482155	1348
Gmeb1	MA0615.1	1.33877	0.0861307	0.818718	0.817096	0.0424287	1348
EBF1	MA0154.3	1.28223	0.0954565	0.773561	0.77179	0.048901	1348
Stat3	MA0144.1	1.25029	0.101111	0.830489	0.828684	0.0510346	1348
Creb3l2	MA0608.1	1.13715	0.122914	0.832491	0.830789	0.0536998	1348
FLI1	MA0475.1	1.13492	0.123591	0.860971	0.859416	0.0480723	1348
TP53	MA0106.1	1.08419	0.134229	0.705307	0.704217	0.0361646	1348
HEY2	MA0649.1	1.04621	0.143125	0.81573	0.814124	0.0533856	1348
CREB3	MA0638.1	0.994235	0.154477	0.761137	0.759878	0.048279	1348
Bach1::Mafk	MA0591.1	0.949727	0.166226	0.767087	0.765945	0.0430483	1348
Hnf4a	MA0114.3	0.934925	0.170089	0.72086	0.719738	0.0426931	1348
TCF4	MA0830.1	0.845901	0.194196	0.890145	0.888863	0.0532202	1348
MTF1	MA0863.1	0.820406	0.20104	0.729357	0.728442	0.0407411	1348
ESR2	MA0258.2	0.800995	0.206758	0.800976	0.800071	0.040814	1348
Spi1	MA0080.3	0.717605	0.23194	0.825553	0.824684	0.0436011	1348
SRF	MA0083.1	0.700268	0.236732	0.743545	0.742594	0.0521608	1348
XBP1	MA0844.1	0.69574	0.238264	0.754768	0.753923	0.0461941	1348
HNF4A	MA0114.1	0.676298	0.245	0.816785	0.816004	0.041585	1348
HSF1	MA0486.1	0.65589	0.251599	0.780242	0.779378	0.0473858	1348
STAT1	MA0137.1	0.593449	0.271943	0.785625	0.784777	0.0538537	1348
ESR1	MA0112.3	0.589059	0.273843	0.715715	0.715001	0.0436097	1348
Spz1	MA0111.1	0.580064	0.277075	0.867153	0.866652	0.0304396	1348
REST	MA0138.2	0.533464	0.293397	0.69051	0.689923	0.0377898	1348
TBP	MA0108.2	0.522682	0.29664	0.820839	0.820003	0.0590298	1348
TBP	MA0108.1	0.519777	0.297693	0.819744	0.8189	0.0597949	1348
Atoh1	MA0461.1	0.505697	0.302563	0.876467	0.875672	0.0588408	1348
TCF3	MA0522.2	0.482617	0.311264	0.888998	0.888267	0.0535803	1348
NFYA	MA0060.1	0.438916	0.326753	0.812405	0.811683	0.0619166	1348
HNF4A	MA0114.2	0.386401	0.346731	0.810629	0.810174	0.0417651	1348
Myb	MA0100.1	0.371082	0.352378	0.88533	0.884846	0.047358	1348
Bcl6	MA0463.1	0.355576	0.358404	0.794106	0.793633	0.047232	1348
RUNX1	MA0002.2	0.308427	0.3764	0.852404	0.85203	0.0440706	1348
HNF4G	MA0484.1	0.29576	0.381364	0.823664	0.823329	0.0408566	1348
Nr1h3::Rxra	MA0494.1	0.28519	0.385315	0.794503	0.794227	0.0361589	1348
GLI2	MA0734.1	0.283287	0.386368	0.775329	0.774958	0.0457084	1348
ZBTB18	MA0698.1	0.259916	0.395286	0.794109	0.793748	0.0511549	1348
Hic1	MA0739.1	0.242412	0.40237	0.864711	0.86442	0.0423281	1348
NFIC::TLX1	MA0119.1	0.236114	0.40484	0.738842	0.738514	0.049152	1348
TBX15	MA0803.1	0.187347	0.42434	0.835812	0.835526	0.0519287	1348
SPI1	MA0080.2	0.131354	0.446651	0.915164	0.915001	0.0451724	1348
HSF4	MA0771.1	0.106708	0.456607	0.782148	0.782006	0.0485766	1348
Rxra	MA0512.1	0.102174	0.458515	0.857776	0.857643	0.0456088	1348
TP63	MA0525.1	0.0711681	0.471061	0.782058	0.781985	0.036492	1348
TBX5	MA0807.1	0.0550699	0.477644	0.872418	0.872347	0.043211	1348
IRF2	MA0051.1	0.0506834	0.479311	0.753571	0.753504	0.05049	1348
RFX5	MA0510.1	0.0397932	0.483821	0.841678	0.841637	0.036366	1348
NFYA	MA0060.2	0.00606042	0.497529	0.754727	0.754719	0.0514305	1348
MYBL2	MA0777.1	-0.053235	0.52171	0.711671	0.711734	0.044869	1348
PRDM1	MA0508.1	-0.0609892	0.52487	0.787447	0.78753	0.051222	1348
PAX1	MA0779.1	-0.0768252	0.531226	0.748025	0.748098	0.0336519	1348
Bhlha15	MA0607.1	-0.0906668	0.536911	0.85749	0.857625	0.0552747	1348
NFATC2	MA0152.1	-0.132354	0.553799	0.903291	0.903491	0.0561343	1348
Hand1::Tcf3	MA0092.1	-0.135814	0.555143	0.880782	0.880929	0.0391313	1348
STAT1	MA0137.3	-0.176167	0.571356	0.825758	0.826028	0.0552935	1348
SREBF1	MA0595.1	-0.181125	0.573364	0.852338	0.852573	0.0470361	1348
NFYB	MA0502.1	-0.200548	0.581255	0.795444	0.795766	0.0604702	1348
MAX::MYC	MA0059.1	-0.229345	0.592511	0.797123	0.797438	0.0490593	1348
ZEB1	MA0103.2	-0.252839	0.60163	0.858307	0.858712	0.0548256	1348
NFIX	MA0671.1	-0.286611	0.614886	0.929689	0.929978	0.0348888	1348
RHOXF1	MA0719.1	-0.300771	0.620484	0.947108	0.947404	0.0347163	1348
Stat5a::Stat5b	MA0519.1	-0.316095	0.62646	0.846875	0.847323	0.0504763	1348
STAT1::STAT2	MA0517.1	-0.347954	0.639094	0.781911	0.782449	0.0588423	1348
SRF	MA0083.2	-0.373431	0.648807	0.758362	0.758865	0.051234	1348
SRF	MA0083.3	-0.386843	0.653898	0.683672	0.684202	0.0522071	1348
ESR2	MA0258.1	-0.389095	0.654446	0.786441	0.786822	0.0356496	1348
STAT3	MA0144.2	-0.407047	0.66125	0.857235	0.857798	0.0509274	1348
RXRB	MA0855.1	-0.410913	0.662557	0.719594	0.720119	0.0461092	1348
Nr2f6	MA0677.1	-0.425535	0.667881	0.744266	0.744786	0.043278	1348
ELF1	MA0473.1	-0.445833	0.675187	0.835105	0.835716	0.0472455	1348
ID4	MA0824.1	-0.474375	0.685789	0.871186	0.871872	0.0514038	1348
PPARG	MA0066.1	-0.478031	0.687271	0.740766	0.741217	0.0342928	1348
HSF1	MA0486.2	-0.484114	0.689514	0.738228	0.738961	0.0553497	1348
HINFP	MA0131.1	-0.520569	0.702327	0.808148	0.808807	0.0450652	1348
znf143	MA0088.1	-0.527268	0.704297	0.82143	0.821912	0.0307936	1348
MNT	MA0825.1	-0.556156	0.714782	0.833886	0.834785	0.0575564	1348
Rxra	MA0512.2	-0.559037	0.715864	0.722596	0.723309	0.0458527	1348
Mlxip	MA0622.1	-0.582665	0.723922	0.822387	0.823564	0.0721458	1348
RUNX2	MA0511.1	-0.596487	0.72874	0.810678	0.811418	0.0449575	1348
MAX	MA0058.1	-0.604543	0.731116	0.834931	0.835881	0.0546123	1348
TEAD1	MA0090.1	-0.643902	0.74493	0.811314	0.812154	0.0492671	1348
Arnt	MA0004.1	-0.649274	0.746137	0.859449	0.86067	0.0668895	1348
Hes2	MA0616.1	-0.671181	0.75357	0.81354	0.814283	0.0407629	1348
RUNX2	MA0511.2	-0.673714	0.754547	0.829232	0.830131	0.0499696	1348
Nr5a2	MA0505.1	-0.688101	0.758471	0.778392	0.77927	0.0444178	1348
RXRG	MA0856.1	-0.702798	0.763474	0.729412	0.730299	0.0456669	1348
Stat4	MA0518.1	-0.707447	0.764967	0.831835	0.83281	0.0500456	1348
IRF1	MA0050.1	-0.710034	0.766291	0.812561	0.813635	0.0578015	1348
SREBF2	MA0596.1	-0.73637	0.773946	0.83378	0.83477	0.0488236	1348
FIGLA	MA0820.1	-0.754199	0.778985	0.863174	0.864214	0.0479748	1348
SMAD3	MA0795.1	-0.759796	0.780906	0.752107	0.75316	0.0494459	1348
TP53	MA0106.2	-0.76043	0.781196	0.755432	0.756296	0.0409586	1348
BCL6B	MA0731.1	-0.774485	0.785561	0.667063	0.668037	0.0460456	1348
PPARG::RXRA	MA0065.1	-0.776258	0.78604	0.722511	0.723401	0.0417878	1348
Gabpa	MA0062.2	-0.804262	0.79272	0.838986	0.840247	0.0473947	1348
ELK4	MA0076.2	-0.806418	0.793508	0.850514	0.851735	0.0468236	1348
PAX9	MA0781.1	-0.831382	0.801859	0.721366	0.722222	0.0367468	1348
RARA(var.2)	MA0730.1	-0.841899	0.804868	0.710145	0.711105	0.0408307	1348
RUNX3	MA0684.1	-0.841924	0.805288	0.822068	0.823149	0.0478553	1348
Pax4	MA0068.1	-0.862805	0.811082	0.760953	0.761779	0.0355733	1348
NFIC	MA0161.1	-0.878118	0.814913	0.946689	0.947575	0.0361718	1348
NR2F1	MA0017.2	-0.915731	0.824836	0.808952	0.810291	0.0516254	1348
STAT1	MA0137.2	-0.917089	0.824992	0.786647	0.78796	0.0494702	1348
MGA	MA0801.1	-0.917918	0.825309	0.855923	0.857223	0.0494881	1348
MAX	MA0058.3	-0.922435	0.82673	0.821744	0.8233	0.060388	1348
Mycn	MA0104.3	-0.928325	0.828346	0.83557	0.83722	0.0641186	1348
Id2	MA0617.1	-0.952041	0.834253	0.820685	0.822563	0.0698752	1348
CREB1	MA0018.2	-0.96138	0.836949	0.873907	0.875188	0.048783	1348
GABPA	MA0062.1	-1.01229	0.84815	0.853617	0.855049	0.0449759	1348
IRF1	MA0050.2	-1.01453	0.850433	0.745205	0.746895	0.0636588	1348
Sox3	MA0514.1	-1.03499	0.85479	0.872122	0.873564	0.0510337	1348
HSF2	MA0770.1	-1.03924	0.855619	0.750889	0.752429	0.0534201	1348
USF1	MA0093.1	-1.04057	0.855876	0.854278	0.85618	0.0655879	1348
ELF5	MA0136.1	-1.11322	0.872375	0.902259	0.903515	0.0418114	1348
RXRA::VDR	MA0074.1	-1.11621	0.872769	0.754958	0.756179	0.0395853	1348
NR2F1	MA0017.1	-1.12002	0.873195	0.818285	0.819497	0.0376352	1348
IRF8	MA0652.1	-1.1165	0.873557	0.714548	0.716052	0.0521419	1348
SPDEF	MA0686.1	-1.12577	0.874066	0.799524	0.800994	0.0436902	1348
ETS1	MA0098.1	-1.13504	0.876954	0.986984	0.987679	0.0226494	1348
ELF5	MA0136.2	-1.17287	0.883879	0.862112	0.863568	0.0423299	1348
ELK1	MA0028.1	-1.2043	0.889736	0.894089	0.895477	0.0380124	1348
Rarb(var.2)	MA0858.1	-1.22661	0.894684	0.69992	0.701398	0.0432195	1348
BHLHE40	MA0464.2	-1.27665	0.903199	0.807044	0.809186	0.0568653	1348
Tcf21	MA0832.1	-1.30319	0.908061	0.735591	0.737391	0.0485631	1348
SPI1	MA0080.4	-1.30798	0.909033	0.738832	0.740711	0.0514956	1348
SCRT2	MA0744.1	-1.32666	0.912009	0.755463	0.757214	0.0467325	1348
SPIC	MA0687.1	-1.32613	0.912231	0.802177	0.803837	0.0458794	1348
TP53	MA0106.3	-1.33408	0.913318	0.706515	0.707952	0.0386237	1348
Ar	MA0007.3	-1.40689	0.924165	0.723442	0.72514	0.0416995	1348
Npas2	MA0626.1	-1.43728	0.928862	0.838383	0.840649	0.0570388	1348
IRF9	MA0653.1	-1.43718	0.929121	0.687645	0.689654	0.0522044	1348
IRF7	MA0772.1	-1.44329	0.930134	0.758447	0.760721	0.0599297	1348
Mycn	MA0104.1	-1.44926	0.930405	0.880664	0.883111	0.0603341	1348
TEAD3	MA0808.1	-1.44867	0.930664	0.868244	0.870437	0.0562975	1348
Rarg(var.2)	MA0860.1	-1.45237	0.9311	0.694157	0.695951	0.0455807	1348
NFAT5	MA0606.1	-1.46384	0.932623	0.869628	0.871759	0.0536122	1348
TBX1	MA0805.1	-1.46769	0.932678	0.831357	0.833665	0.0547175	1348
E2F3	MA0469.2	-1.53927	0.941885	0.700405	0.702218	0.0421669	1348
ETV5	MA0765.1	-1.5525	0.942669	0.858735	0.860947	0.045451	1348
NKX2-8	MA0673.1	-1.56949	0.945366	0.893579	0.895312	0.0394423	1348
TP73	MA0861.1	-1.57779	0.946242	0.740836	0.742591	0.0394376	1348
CLOCK	MA0819.1	-1.58954	0.947748	0.806591	0.808681	0.0479844	1348
E2F7	MA0758.1	-1.6003	0.948816	0.689144	0.691323	0.049042	1348
ELF3	MA0640.1	-1.63481	0.951941	0.766923	0.769102	0.0446211	1348
Atf1	MA0604.1	-1.63695	0.95276	0.83663	0.839186	0.057304	1348
BHLHE41	MA0636.1	-1.67686	0.956063	0.772435	0.775072	0.0526078	1348
NR1H2::RXRA	MA0115.1	-1.67637	0.956434	0.672737	0.674827	0.0446401	1348
ELK4	MA0076.1	-1.72122	0.959757	0.819262	0.822032	0.0502657	1348
TEAD1	MA0090.2	-1.7366	0.961978	0.872026	0.874192	0.0458278	1348
FOXO3	MA0157.1	-1.74442	0.962683	0.867671	0.87057	0.0615263	1348
FOXP1	MA0481.1	-1.77857	0.96535	0.796145	0.799665	0.0722322	1348
SCRT1	MA0743.1	-1.8158	0.968008	0.747556	0.749896	0.0457108	1348
Myc	MA0147.2	-1.82996	0.969065	0.841916	0.844564	0.0516596	1348
Nr2e3	MA0164.1	-1.83265	0.969435	0.826465	0.830093	0.0730203	1348
Arntl	MA0603.1	-1.85537	0.970586	0.813882	0.816921	0.055635	1348
Arid3a	MA0151.1	-1.86239	0.971303	0.887794	0.892365	0.0876115	1348
Sox2	MA0143.3	-1.90943	0.974373	0.850619	0.853942	0.0629294	1348
FOXA1	MA0148.1	-1.9122	0.974594	0.832012	0.835105	0.0591294	1348
HLTF	MA0109.1	-1.91754	0.974716	0.943479	0.945025	0.0282504	1348
Vdr	MA0693.1	-1.92641	0.975244	0.730474	0.732509	0.0370063	1348
FOXA1	MA0148.2	-1.92998	0.975654	0.832799	0.835906	0.0588696	1348
Pax6	MA0069.1	-1.9316	0.975753	0.766129	0.768231	0.0398351	1348
E2F2	MA0864.1	-1.95008	0.976734	0.684769	0.687293	0.0466254	1348
NFIA	MA0670.1	-1.95586	0.976971	0.840157	0.843618	0.0625414	1348
CEBPA	MA0102.3	-1.95489	0.977184	0.826744	0.829654	0.0557086	1348
FOXP2	MA0593.1	-1.95994	0.977379	0.82231	0.826008	0.0694106	1348
ELF1	MA0473.2	-1.97805	0.977798	0.776825	0.77973	0.0470198	1348
FEV	MA0156.1	-1.96921	0.977812	0.877269	0.880508	0.0595781	1348
ELF4	MA0641.1	-1.97903	0.977859	0.7762	0.77908	0.0467012	1348
Sox6	MA0515.1	-1.99032	0.978881	0.860625	0.863524	0.052197	1348
FOSL2	MA0478.1	-2.00037	0.979463	0.81897	0.822062	0.0562736	1348
ISL2	MA0914.1	-2.0203	0.980389	0.863713	0.866739	0.053731	1348
Rhox11	MA0629.1	-2.03702	0.981157	0.791284	0.793761	0.0432834	1348
Ar	MA0007.1	-2.03853	0.981213	0.778096	0.77988	0.0310329	1348
ETV1	MA0761.1	-2.04985	0.981379	0.837552	0.840459	0.0453325	1348
TFAP4	MA0691.1	-2.04776	0.981601	0.792166	0.795377	0.0550218	1348
Meis1	MA0498.1	-2.05784	0.98212	0.806176	0.808932	0.0477585	1348
NFATC3	MA0625.1	-2.0557	0.982204	0.859152	0.862218	0.0556535	1348
SPIB	MA0081.1	-2.06953	0.982807	0.935712	0.938571	0.0514583	1348
MSC	MA0665.1	-2.08452	0.98323	0.805161	0.807899	0.0461374	1348
Tcf7	MA0769.1	-2.09416	0.983616	0.755934	0.75914	0.0534646	1348
EHF	MA0598.2	-2.10842	0.984042	0.779752	0.782676	0.0460722	1348
MEF2A	MA0052.2	-2.10091	0.98409	0.783409	0.787411	0.0702546	1348
NKX2-3	MA0672.1	-2.14214	0.985615	0.860085	0.862838	0.046326	1348
TEAD4	MA0809.1	-2.15016	0.986001	0.871618	0.874692	0.0529052	1348
Rfx1	MA0509.1	-2.16982	0.986331	0.778858	0.781736	0.0433547	1348
ETV6	MA0645.1	-2.17383	0.98634	0.847115	0.850307	0.0454867	1348
NFATC1	MA0624.1	-2.16467	0.986526	0.877129	0.880178	0.0521962	1348
ESRRA	MA0592.1	-2.18791	0.987057	0.81323	0.816193	0.0458818	1348
MEF2A	MA0052.3	-2.20059	0.987697	0.759519	0.764401	0.0809984	1348
ETV4	MA0764.1	-2.22416	0.98813	0.843099	0.846146	0.0444197	1348
ELK1	MA0028.2	-2.27823	0.98961	0.800515	0.804262	0.0502657	1348
TGIF1	MA0796.1	-2.30225	0.990537	0.693719	0.697219	0.0530586	1348
MEF2A	MA0052.1	-2.29926	0.990556	0.777589	0.782597	0.0790724	1348
RFX2	MA0600.1	-2.32061	0.990853	0.761872	0.764721	0.0399174	1348
Crx	MA0467.1	-2.33758	0.991473	0.815313	0.818379	0.0469863	1348
FOSL1	MA0477.1	-2.35764	0.992001	0.813075	0.816768	0.0577606	1348
TGIF2	MA0797.1	-2.37158	0.992209	0.727708	0.731025	0.04927	1348
Ddit3::Cebpa	MA0019.1	-2.36929	0.992227	0.823592	0.826474	0.0442394	1348
ELK3	MA0759.1	-2.39157	0.992425	0.822923	0.826539	0.0473535	1348
PITX3	MA0714.1	-2.38214	0.99248	0.850308	0.854123	0.0576084	1348
JUNB	MA0490.1	-2.37963	0.992483	0.814415	0.81824	0.0593297	1348
FOXA1	MA0148.3	-2.42019	0.993261	0.810366	0.814281	0.0585523	1348
PKNOX1	MA0782.1	-2.43	0.993356	0.71418	0.717782	0.0510588	1348
TFE3	MA0831.1	-2.43159	0.993363	0.830523	0.833911	0.0473707	1348
PKNOX2	MA0783.1	-2.4327	0.993401	0.719738	0.723233	0.0493213	1348
MEIS2	MA0774.1	-2.43368	0.993499	0.857151	0.860932	0.0557327	1348
NR4A2	MA0160.1	-2.44202	0.993667	0.890938	0.89397	0.0448755	1348
ETS1	MA0098.3	-2.50399	0.994551	0.841998	0.845539	0.0459217	1348
TBX21	MA0690.1	-2.50126	0.994609	0.796877	0.800339	0.0482191	1348
TBX4	MA0806.1	-2.50983	0.994719	0.85947	0.862895	0.0468056	1348
ERG	MA0474.2	-2.51595	0.994755	0.84432	0.847826	0.0458292	1348
Stat6	MA0520.1	-2.5127	0.994829	0.805977	0.80975	0.0537628	1348
Foxa2	MA0047.2	-2.5251	0.995035	0.813561	0.817697	0.0594293	1348
Bhlhe40	MA0464.1	-2.53346	0.995129	0.836724	0.84027	0.0498887	1348
Nkx2-5	MA0063.1	-2.53945	0.995211	0.907446	0.911595	0.0580866	1348
OTX1	MA0711.1	-2.55123	0.995415	0.855296	0.859531	0.0605989	1348
Mitf	MA0620.1	-2.57623	0.995651	0.852357	0.855895	0.0467138	1348
FOXH1	MA0479.1	-2.57707	0.995719	0.81679	0.820865	0.0562235	1348
TBX20	MA0689.1	-2.59432	0.995945	0.797615	0.80103	0.0471275	1348
NR3C1	MA0113.1	-2.59558	0.995983	0.826595	0.829008	0.0338576	1348
MEF2C	MA0497.1	-2.6013	0.996067	0.799422	0.804189	0.0674706	1348
MEF2D	MA0773.1	-2.61877	0.996259	0.752785	0.758459	0.079082	1348
Pitx1	MA0682.1	-2.62283	0.996281	0.86057	0.864834	0.0582028	1348
PROX1	MA0794.1	-2.63996	0.996509	0.75546	0.758691	0.0452259	1348
Barhl1	MA0877.1	-2.65593	0.996633	0.869107	0.873088	0.0533744	1348
TCF7L2	MA0523.1	-2.66973	0.996759	0.810287	0.813979	0.0485985	1348
Esrrb	MA0141.1	-2.68071	0.996819	0.817101	0.820741	0.0454673	1348
Esrrb	MA0141.2	-2.68756	0.996887	0.817199	0.820851	0.0455242	1348
FEV	MA0156.2	-2.69281	0.996908	0.836037	0.839905	0.0466069	1348
ZBED1	MA0749.1	-2.68732	0.996939	0.697419	0.700676	0.0429487	1348
Crem	MA0609.1	-2.68141	0.996952	0.774038	0.7788	0.0669694	1348
MYBL1	MA0776.1	-2.71054	0.997181	0.739795	0.743249	0.0464268	1348
Gfi1b	MA0483.1	-2.71288	0.997182	0.833309	0.837167	0.0508292	1348
MEF2B	MA0660.1	-2.72409	0.99731	0.742963	0.748607	0.076353	1348
Foxo1	MA0480.1	-2.7343	0.997397	0.827461	0.831747	0.0579043	1348
LEF1	MA0768.1	-2.74983	0.997491	0.741936	0.745935	0.051943	1348
ERF	MA0760.1	-2.78303	0.997665	0.826715	0.830552	0.0444444	1348
MLX	MA0663.1	-2.77755	0.997676	0.768811	0.773097	0.0533102	1348
NRL	MA0842.1	-2.80233	0.997882	0.848146	0.851531	0.0433712	1348
Nkx3-2	MA0122.1	-2.80425	0.997916	0.897415	0.900659	0.0426211	1348
SNAI2	MA0745.1	-2.81472	0.997972	0.890835	0.894949	0.0529566	1348
HOXD13	MA0909.1	-2.81747	0.997992	0.826367	0.831817	0.0702954	1348
Foxj3	MA0851.1	-2.82064	0.998011	0.775861	0.781121	0.0675701	1348
MLXIPL	MA0664.1	-2.83233	0.998051	0.790764	0.795191	0.0540284	1348
USF1	MA0093.2	-2.86309	0.998236	0.815057	0.819393	0.0522771	1348
Hmx1	MA0896.1	-2.89008	0.998404	0.754679	0.758658	0.049	1348
FOS::JUN	MA0099.2	-2.88888	0.998424	0.901861	0.905691	0.0492064	1348
FLI1	MA0475.2	-2.90784	0.998444	0.824194	0.828466	0.0476265	1348
GMEB2	MA0862.1	-2.89721	0.998469	0.80935	0.813599	0.0545993	1348
MYF6	MA0667.1	-2.91348	0.998519	0.786146	0.790391	0.0515072	1348
BARHL2	MA0635.1	-2.92303	0.998581	0.859253	0.86371	0.0554017	1348
ETV2	MA0762.1	-2.94975	0.99867	0.800421	0.804459	0.0467333	1348
JUN(var.2)	MA0489.1	-2.94143	0.998679	0.796635	0.801044	0.0557079	1348
Foxk1	MA0852.1	-2.96105	0.998753	0.749435	0.755081	0.0694859	1348
TFEB	MA0692.1	-2.99511	0.998857	0.816962	0.821381	0.0501942	1348
FOS	MA0476.1	-2.99056	0.998873	0.814501	0.819531	0.0614694	1348
HOXA13	MA0650.1	-2.99277	0.998875	0.821663	0.827308	0.0680506	1348
Sox2	MA0143.2	-2.99165	0.998879	0.755741	0.759899	0.0510287	1348
GSX2	MA0893.1	-3.02134	0.998981	0.845013	0.850379	0.0642518	1348
Sox2	MA0143.1	-3.02582	0.999003	0.754928	0.759136	0.0510553	1348
CEBPE	MA0837.1	-3.03584	0.999043	0.816314	0.820527	0.0516355	1348
RUNX1	MA0002.1	-3.06856	0.999142	0.832458	0.836536	0.04901	1348
CEBPB	MA0466.1	-3.07408	0.999157	0.815307	0.820107	0.0574102	1348
NKX3-2	MA0122.2	-3.07842	0.999161	0.839022	0.843545	0.0528767	1348
TAL1::TCF3	MA0091.1	-3.12214	0.99928	0.80861	0.812747	0.0475489	1348
Six3	MA0631.1	-3.13562	0.999308	0.726758	0.730942	0.0470338	1348
FOXC2	MA0846.1	-3.13494	0.999318	0.813678	0.819788	0.0713217	1348
Arid3b	MA0601.1	-3.14989	0.999348	0.78726	0.795525	0.0944744	1348
USF2	MA0526.1	-3.154	0.999348	0.824783	0.829461	0.0517199	1348
BATF::JUN	MA0462.1	-3.15176	0.999359	0.817433	0.822256	0.0563454	1348
NR3C1	MA0113.2	-3.16581	0.999379	0.827683	0.830937	0.0363907	1348
EOMES	MA0800.1	-3.16857	0.999383	0.782286	0.78645	0.046146	1348
CEBPB	MA0466.2	-3.165	0.999392	0.807995	0.81247	0.0525246	1348
GSC2	MA0891.1	-3.19751	0.999457	0.846584	0.851238	0.0536495	1348
FOXI1	MA0042.2	-3.20295	0.999469	0.843773	0.849982	0.0718797	1348
OTX2	MA0712.1	-3.21983	0.999496	0.857001	0.862694	0.0644369	1348
Pax2	MA0067.1	-3.22485	0.999506	0.923014	0.926491	0.0394789	1348
LMX1B	MA0703.1	-3.24437	0.999538	0.847101	0.854109	0.0783628	1348
T	MA0009.1	-3.26125	0.999558	0.747382	0.751873	0.0482332	1348
Hmx3	MA0898.1	-3.26133	0.999559	0.729597	0.734566	0.0536935	1348
Nr2e1	MA0676.1	-3.25527	0.999562	0.82992	0.835132	0.0596076	1348
ZEB1	MA0103.1	-3.26405	0.999573	0.947225	0.951984	0.0536486	1348
Nkx3-1	MA0124.2	-3.27039	0.999579	0.828107	0.83294	0.0532814	1348
FOXO3	MA0157.2	-3.30056	0.999628	0.817921	0.824072	0.0689062	1348
FOXO6	MA0849.1	-3.30775	0.999638	0.84793	0.854238	0.0706994	1348
FOXP3	MA0850.1	-3.31132	0.999641	0.904222	0.908778	0.0505113	1348
NOTO	MA0710.1	-3.31778	0.999644	0.844495	0.850411	0.0634447	1348
TBR1	MA0802.1	-3.31989	0.999644	0.798276	0.802898	0.0487529	1348
HOXB13	MA0901.1	-3.32315	0.999654	0.812222	0.818424	0.0674288	1348
Cebpa	MA0102.1	-3.33218	0.999668	0.847893	0.852286	0.0482934	1348
Myb	MA0100.2	-3.33312	0.999669	0.846441	0.851077	0.0508888	1348
Gata1	MA0035.1	-3.32798	0.999677	0.97389	0.976614	0.0322806	1348
MAX	MA0058.2	-3.34531	0.999678	0.821803	0.826855	0.0536612	1348
CEBPD	MA0836.1	-3.36945	0.999714	0.80028	0.805095	0.053351	1348
FOXD2	MA0847.1	-3.37736	0.999722	0.895573	0.900878	0.0585544	1348
NKX6-1	MA0674.1	-3.38862	0.999727	0.857802	0.8641	0.0661645	1348
SRY	MA0084.1	-3.39137	0.999732	0.869845	0.875714	0.0626801	1348
TFCP2	MA0145.3	-3.41881	0.999754	0.798438	0.802894	0.0455785	1348
Gata4	MA0482.1	-3.42053	0.999758	0.843932	0.848571	0.0480637	1348
Hoxd9	MA0913.1	-3.41721	0.999758	0.850006	0.855823	0.0619626	1348
JUND	MA0491.1	-3.41801	0.999759	0.805382	0.810697	0.05656	1348
FOXD1	MA0031.1	-3.41622	0.99976	0.828936	0.835487	0.0712834	1348
GSX1	MA0892.1	-3.42348	0.999763	0.860857	0.866129	0.0557351	1348
LMX1A	MA0702.1	-3.42602	0.999765	0.80488	0.812658	0.0818006	1348
JUN::FOS	MA0099.1	-3.42128	0.999768	0.869952	0.875082	0.0568977	1348
Lhx3	MA0135.1	-3.44048	0.999774	0.771694	0.77879	0.0722744	1348
GATA2	MA0036.1	-3.4347	0.999788	0.973183	0.975848	0.0312532	1348
GATA1::TAL1	MA0140.2	-3.45865	0.999791	0.758159	0.762971	0.0494501	1348
Tal1::Gata1	MA0140.1	-3.4838	0.999809	0.779705	0.784183	0.045068	1348
PAX4	MA0068.2	-3.4885	0.999816	0.810013	0.816749	0.0699517	1348
Alx4	MA0853.1	-3.49735	0.999822	0.736075	0.741758	0.0589184	1348
Rarb	MA0857.1	-3.50719	0.999827	0.680107	0.684769	0.0473284	1348
LIN54	MA0619.1	-3.52858	0.999842	0.841815	0.850149	0.0850602	1348
ATF7	MA0834.1	-3.53133	0.999845	0.721841	0.72776	0.0615379	1348
ZNF143	MA0088.2	-3.5544	0.999851	0.742564	0.746757	0.0395004	1348
NFE2	MA0841.1	-3.57203	0.999867	0.750375	0.756049	0.0569467	1348
ISX	MA0654.1	-3.57454	0.999867	0.834494	0.84241	0.0789436	1348
Shox2	MA0720.1	-3.57382	0.999868	0.84473	0.852377	0.0771606	1348
Hmx2	MA0897.1	-3.59195	0.999876	0.731227	0.736656	0.0535448	1348
Nr2f6(var.2)	MA0728.1	-3.5946	0.999878	0.709193	0.713974	0.0477565	1348
Nfe2l2	MA0150.2	-3.59993	0.999882	0.741839	0.746431	0.046501	1348
SHOX	MA0630.1	-3.60854	0.999885	0.850952	0.858693	0.0768884	1348
Lhx4	MA0704.1	-3.61155	0.999887	0.845577	0.85233	0.0677714	1348
UNCX	MA0721.1	-3.62108	0.999891	0.848914	0.856281	0.0735993	1348
RORA	MA0071.1	-3.6294	0.999893	0.818486	0.823957	0.0532474	1348
VSX1	MA0725.1	-3.64032	0.999897	0.829343	0.837196	0.0761042	1348
CEBPA	MA0102.2	-3.63222	0.999898	0.864194	0.869471	0.054209	1348
NFE2L2	MA0150.1	-3.64875	0.999901	0.806522	0.811346	0.0464962	1348
Lhx8	MA0705.1	-3.64924	0.999902	0.857209	0.863628	0.0630569	1348
FOXF2	MA0030.1	-3.65794	0.999906	0.77053	0.776726	0.0613114	1348
MAFG	MA0659.1	-3.66415	0.999908	0.709786	0.713785	0.039041	1348
Atf3	MA0605.1	-3.66199	0.999908	0.829258	0.83479	0.0552823	1348
RAX2	MA0717.1	-3.66504	0.999909	0.852855	0.860036	0.0708137	1348
JDP2(var.2)	MA0656.1	-3.66884	0.999911	0.732248	0.738528	0.0626873	1348
FOXG1	MA0613.1	-3.67168	0.999912	0.818822	0.826806	0.0793336	1348
Pou5f1::Sox2	MA0142.1	-3.67971	0.999915	0.744073	0.749898	0.0582776	1348
FOXO4	MA0848.1	-3.68014	0.999916	0.863421	0.870152	0.0683523	1348
Gfi1	MA0038.1	-3.6881	0.999918	0.861902	0.867613	0.0574543	1348
HOXA10	MA0899.1	-3.69036	0.999918	0.817333	0.824456	0.0706813	1348
JUND(var.2)	MA0492.1	-3.69771	0.99992	0.789828	0.795351	0.0542494	1348
ETV3	MA0763.1	-3.72513	0.999923	0.830439	0.835353	0.0416388	1348
Gata1	MA0035.3	-3.71185	0.999923	0.809088	0.814958	0.0553616	1348
VSX2	MA0726.1	-3.74212	0.999932	0.81333	0.82148	0.0771306	1348
GATA3	MA0037.2	-3.74995	0.999934	0.826568	0.833491	0.0643983	1348
MAFF	MA0495.1	-3.74897	0.999935	0.756367	0.76116	0.045991	1348
POU3F4	MA0789.1	-3.75303	0.999936	0.781908	0.789875	0.0754853	1348
Mafb	MA0117.2	-3.75429	0.999937	0.808114	0.813106	0.0480094	1348
ALX3	MA0634.1	-3.75662	0.999937	0.826456	0.833505	0.068007	1348
SOX4	MA0867.1	-3.76521	0.999939	0.640541	0.64651	0.0567648	1348
mix-a	MA0621.1	-3.77658	0.999942	0.753814	0.763753	0.0937923	1348
CEBPG	MA0838.1	-3.77378	0.999943	0.770846	0.776252	0.0533377	1348
Nobox	MA0125.1	-3.79993	0.999947	0.850808	0.857666	0.0638991	1348
Dmbx1	MA0883.1	-3.79924	0.999947	0.780273	0.785515	0.0493585	1348
Sox11	MA0869.1	-3.8073	0.999949	0.651197	0.657636	0.0609605	1348
T	MA0009.2	-3.81216	0.99995	0.695817	0.700348	0.0423931	1348
LBX2	MA0699.1	-3.81416	0.999951	0.84082	0.84726	0.0607866	1348
LHX9	MA0701.1	-3.82439	0.999953	0.870618	0.877809	0.0678844	1348
MAF::NFE2	MA0501.1	-3.84802	0.999957	0.740124	0.745201	0.0475264	1348
FOXC1	MA0032.2	-3.86297	0.99996	0.819289	0.826777	0.0707049	1348
PRRX1	MA0716.1	-3.86875	0.999961	0.84272	0.8511	0.0785115	1348
NKX6-2	MA0675.1	-3.8748	0.999962	0.863002	0.870749	0.0719331	1348
TBX2	MA0688.1	-3.882	0.999962	0.815137	0.82001	0.0435566	1348
NEUROG2	MA0669.1	-3.87933	0.999962	0.787642	0.792998	0.0489471	1348
Dux	MA0611.1	-3.87815	0.999962	0.840316	0.848276	0.0739019	1348
SOX10	MA0442.1	-3.89231	0.999965	0.943172	0.947882	0.0437182	1348
Prrx2	MA0075.2	-3.90349	0.999966	0.855161	0.862839	0.0715411	1348
Atoh1	MA0461.2	-3.90727	0.999966	0.818377	0.823702	0.0484667	1348
DUXA	MA0884.1	-3.90732	0.999967	0.779176	0.785712	0.0607628	1348
RAX	MA0718.1	-3.91493	0.999968	0.830223	0.8381	0.0724275	1348
RARA	MA0729.1	-3.92005	0.999968	0.69061	0.695259	0.0423895	1348
VAX2	MA0723.1	-3.92558	0.999969	0.850309	0.857197	0.0624423	1348
FOXB1	MA0845.1	-3.93415	0.99997	0.78996	0.797664	0.0695224	1348
Pou2f3	MA0627.1	-3.93425	0.999971	0.740442	0.747762	0.0678192	1348
Alx1	MA0854.1	-3.93898	0.999971	0.73719	0.743998	0.0616221	1348
POU2F2	MA0507.1	-3.94861	0.999972	0.773137	0.780958	0.0710168	1348
FOXL1	MA0033.2	-3.9525	0.999973	0.875511	0.882995	0.0695329	1348
BATF3	MA0835.1	-3.96483	0.999974	0.657713	0.663617	0.0529614	1348
TBX19	MA0804.1	-3.98344	0.999976	0.678748	0.683416	0.0423187	1348
JUN	MA0488.1	-3.98197	0.999976	0.789038	0.795097	0.0555486	1348
MNX1	MA0707.1	-3.98985	0.999977	0.851591	0.858714	0.0647898	1348
HLF	MA0043.2	-3.99438	0.999977	0.804762	0.810889	0.054997	1348
Foxd3	MA0041.1	-3.99121	0.999977	0.834154	0.841468	0.0671555	1348
POU6F2	MA0793.1	-4.00586	0.999979	0.793064	0.800472	0.0673495	1348
MIXL1	MA0662.1	-4.0121	0.999979	0.851231	0.858686	0.0674352	1348
Foxj2	MA0614.1	-4.01592	0.99998	0.845921	0.853818	0.0736769	1348
RFX5	MA0510.2	-4.04119	0.99998	0.70474	0.710403	0.0450949	1348
NR3C2	MA0727.1	-4.03747	0.999981	0.715978	0.721231	0.0450572	1348
VAX1	MA0722.1	-4.03818	0.999981	0.851014	0.858368	0.0647345	1348
DLX6	MA0882.1	-4.04571	0.999982	0.862186	0.870017	0.0694851	1348
Dlx2	MA0885.1	-4.04789	0.999982	0.852084	0.860951	0.0787589	1348
Dlx3	MA0880.1	-4.05404	0.999982	0.862532	0.870493	0.0706208	1348
ESX1	MA0644.1	-4.05993	0.999983	0.83764	0.845	0.0649615	1348
NR3C1	MA0113.3	-4.07148	0.999983	0.719525	0.724813	0.0450078	1348
POU1F1	MA0784.1	-4.08923	0.999985	0.726664	0.734709	0.0711295	1348
EN1	MA0027.2	-4.09204	0.999985	0.858605	0.866209	0.0674905	1348
Dlx4	MA0881.1	-4.10935	0.999986	0.86424	0.871974	0.0675908	1348
MSX1	MA0666.1	-4.12196	0.999987	0.85472	0.862099	0.0648548	1348
DUX4	MA0468.1	-4.13476	0.999988	0.793324	0.80053	0.0637445	1348
Msx3	MA0709.1	-4.16125	0.999989	0.837148	0.846094	0.077881	1348
CDX2	MA0465.1	-4.18731	0.99999	0.817164	0.824659	0.0641451	1348
NEUROD2	MA0668.1	-4.22545	0.999992	0.845502	0.849987	0.0364744	1348
POU3F1	MA0786.1	-4.2288	0.999992	0.769652	0.778471	0.0735461	1348
Rarg	MA0859.1	-4.23402	0.999992	0.698946	0.704608	0.0476562	1348
MAFK	MA0496.1	-4.24956	0.999993	0.786833	0.792738	0.0494982	1348
CDX1	MA0878.1	-4.24867	0.999993	0.842447	0.850641	0.0707478	1348
HMBOX1	MA0895.1	-4.24866	0.999993	0.826342	0.832496	0.0535979	1348
HESX1	MA0894.1	-4.26609	0.999993	0.818988	0.827755	0.0735459	1348
MSX2	MA0708.1	-4.28196	0.999994	0.83151	0.840146	0.0735178	1348
GBX2	MA0890.1	-4.28645	0.999994	0.823818	0.832303	0.0713726	1348
Gata1	MA0035.2	-4.29112	0.999994	0.841596	0.848037	0.0535557	1348
EN2	MA0642.1	-4.28971	0.999994	0.858703	0.864632	0.05111	1348
POU3F2	MA0787.1	-4.3032	0.999994	0.759941	0.768693	0.0722063	1348
TP63	MA0525.2	-4.32046	0.999995	0.692079	0.696991	0.0394586	1348
NFIL3	MA0025.1	-4.33519	0.999995	0.779633	0.787636	0.0660822	1348
HOXA5	MA0158.1	-4.34432	0.999995	0.91381	0.919291	0.0460432	1348
GSC	MA0648.1	-4.34684	0.999996	0.827089	0.834226	0.0601164	1348
PDX1	MA0132.2	-4.36755	0.999996	0.852738	0.862059	0.0762425	1348
EMX1	MA0612.1	-4.37406	0.999996	0.833779	0.841614	0.0642335	1348
LHX2	MA0700.1	-4.38406	0.999996	0.813045	0.820869	0.0640541	1348
Arx	MA0874.1	-4.39523	0.999996	0.726711	0.733884	0.0573322	1348
GBX1	MA0889.1	-4.40173	0.999996	0.809916	0.817983	0.0659888	1348
SOX9	MA0077.1	-4.41787	0.999997	0.83805	0.844558	0.0535452	1348
Hoxd3	MA0912.1	-4.43362	0.999997	0.779354	0.785978	0.0530357	1348
LHX6	MA0658.1	-4.45127	0.999997	0.800142	0.807847	0.0612108	1348
RORA(var.2)	MA0072.1	-4.45428	0.999997	0.758913	0.765513	0.0532747	1348
PROP1	MA0715.1	-4.46064	0.999997	0.733079	0.74363	0.08311	1348
Foxa2	MA0047.1	-4.47272	0.999997	0.833184	0.840055	0.0541509	1348
Creb5	MA0840.1	-4.49737	0.999998	0.748796	0.756625	0.0639194	1348
HNF1A	MA0046.1	-4.50355	0.999998	0.767324	0.775208	0.0624755	1348
BSX	MA0876.1	-4.5107	0.999998	0.878539	0.886713	0.0646324	1348
SOX8	MA0868.1	-4.5115	0.999998	0.634909	0.642006	0.0561119	1348
POU5F1B	MA0792.1	-4.51661	0.999998	0.805189	0.814177	0.0712658	1348
Foxq1	MA0040.1	-4.5187	0.999998	0.798259	0.806768	0.0677254	1348
En1	MA0027.1	-4.53358	0.999998	0.905168	0.908701	0.0279442	1348
ESRRB	MA0141.3	-4.54746	0.999998	0.765183	0.772156	0.0522245	1348
HOXC13	MA0907.1	-4.53869	0.999998	0.770914	0.778338	0.0589219	1348
DMRT3	MA0610.1	-4.56649	0.999998	0.779909	0.787812	0.0615484	1348
AR	MA0007.2	-4.56826	0.999998	0.798428	0.804193	0.0460018	1348
FOXI1	MA0042.1	-4.57985	0.999999	0.821579	0.830674	0.0710421	1348
NKX3-1	MA0124.1	-4.58282	0.999999	0.824656	0.834028	0.0725973	1348
DBP	MA0639.1	-4.59712	0.999999	0.774385	0.782164	0.0604151	1348
POU4F1	MA0790.1	-4.6066	0.999999	0.720682	0.730705	0.0778507	1348
EMX2	MA0886.1	-4.60547	0.999999	0.816116	0.824858	0.0686834	1348
POU4F3	MA0791.1	-4.61157	0.999999	0.700764	0.710463	0.0751527	1348
LBX1	MA0618.1	-4.6287	0.999999	0.838239	0.846548	0.0651456	1348
VENTX	MA0724.1	-4.63844	0.999999	0.814004	0.822323	0.0632184	1348
ATF4	MA0833.1	-4.64093	0.999999	0.76779	0.773902	0.0482948	1348
HOXB3	MA0903.1	-4.67845	0.999999	0.862961	0.871383	0.0654865	1348
POU3F3	MA0788.1	-4.69375	0.999999	0.753634	0.763231	0.0731435	1348
Phox2b	MA0681.1	-4.71262	0.999999	0.763596	0.773419	0.0745623	1348
PAX3	MA0780.1	-4.72531	0.999999	0.72051	0.730857	0.0771869	1348
JDP2	MA0655.1	-4.72386	0.999999	0.761889	0.770201	0.0633287	1348
Prrx2	MA0075.1	-4.72205	0.999999	0.884955	0.8978	0.0990842	1348
Dlx1	MA0879.1	-4.72751	0.999999	0.848326	0.857343	0.0687639	1348
POU4F2	MA0683.1	-4.73331	0.999999	0.678108	0.687112	0.0674682	1348
POU6F1	MA0628.1	-4.73552	0.999999	0.76178	0.772514	0.0800927	1348
Sox1	MA0870.1	-4.74454	0.999999	0.685476	0.693054	0.0555406	1348
GATA3	MA0037.1	-4.75037	0.999999	0.932206	0.938086	0.0451031	1348
Hoxd8	MA0910.1	-4.75626	0.999999	0.714976	0.724354	0.0699314	1348
SREBF2(var.2)	MA0828.1	-4.76586	0.999999	0.773583	0.780847	0.0518103	1348
Arid5a	MA0602.1	-4.7569	0.999999	0.77349	0.783436	0.0755154	1348
POU2F1	MA0785.1	-4.76965	0.999999	0.772509	0.781836	0.069804	1348
Srebf1(var.2)	MA0829.1	-4.79981	0.999999	0.778659	0.786008	0.0520186	1348
PHOX2A	MA0713.1	-4.79067	0.999999	0.762681	0.772761	0.075282	1348
CUX2	MA0755.1	-4.84672	1	0.751731	0.76077	0.0665845	1348
SOX21	MA0866.1	-4.85693	1	0.68441	0.692206	0.057396	1348
HOXB2	MA0902.1	-4.85958	1	0.864166	0.872743	0.0644336	1348
BHLHE23	MA0817.1	-4.86862	1	0.753901	0.761458	0.0547026	1348
Esrrg	MA0643.1	-4.88146	1	0.811198	0.818084	0.0487091	1348
Esrra	MA0592.2	-4.8891	1	0.751121	0.758132	0.0486017	1348
PAX7	MA0680.1	-4.88497	1	0.709903	0.720555	0.076763	1348
MEIS3	MA0775.1	-4.89713	1	0.879734	0.886691	0.0512406	1348
TFEC	MA0871.1	-4.91918	1	0.854433	0.860454	0.0424455	1348
BARX1	MA0875.1	-4.9416	1	0.870806	0.880249	0.0685726	1348
Pdx1	MA0132.1	-4.952	1	0.882081	0.893456	0.0842954	1348
TEF	MA0843.1	-4.96147	1	0.763127	0.7713	0.059486	1348
EVX2	MA0888.1	-4.98548	1	0.843131	0.851198	0.0575357	1348
CUX1	MA0754.1	-4.99435	1	0.766427	0.776006	0.0686084	1348
FOXC1	MA0032.1	-4.97125	1	0.933806	0.940051	0.051131	1348
Mecom	MA0029.1	-5.02428	1	0.742545	0.750613	0.0579989	1348
GATA2	MA0036.2	-5.04327	1	0.802021	0.809297	0.0514273	1348
MEOX2	MA0706.1	-5.05606	1	0.833513	0.842155	0.0613378	1348
ONECUT3	MA0757.1	-5.09322	1	0.71472	0.725355	0.0749765	1348
FOXL1	MA0033.1	-5.09719	1	0.887628	0.896708	0.0633691	1348
Neurog1	MA0623.1	-5.11034	1	0.849185	0.854465	0.0358534	1348
BHLHE22	MA0818.1	-5.11834	1	0.786341	0.793635	0.0500174	1348
Sox17	MA0078.1	-5.1246	1	0.867492	0.875568	0.0546473	1348
Sox5	MA0087.1	-5.13524	1	0.854413	0.865094	0.0753196	1348
RFX3	MA0798.1	-5.19927	1	0.741491	0.748255	0.042249	1348
MEOX1	MA0661.1	-5.18311	1	0.827217	0.835899	0.0599291	1348
Twist2	MA0633.1	-5.18848	1	0.797595	0.806591	0.0609476	1348
EVX1	MA0887.1	-5.18925	1	0.845812	0.854116	0.0566507	1348
OLIG1	MA0826.1	-5.19085	1	0.766678	0.774626	0.0539509	1348
YY2	MA0748.1	-5.2255	1	0.795484	0.802534	0.0446882	1348
RFX4	MA0799.1	-5.23796	1	0.758705	0.765401	0.0417043	1348
Hoxb5	MA0904.1	-5.23387	1	0.738272	0.746681	0.0571938	1348
GRHL1	MA0647.1	-5.25966	1	0.741422	0.749319	0.0526802	1348
ONECUT2	MA0756.1	-5.29476	1	0.719514	0.729829	0.0698452	1348
HNF1A	MA0046.2	-5.31548	1	0.723166	0.733739	0.0702305	1348
ONECUT1	MA0679.1	-5.35395	1	0.721277	0.731651	0.0693533	1348
RFX2	MA0600.2	-5.49966	1	0.708588	0.716323	0.0452156	1348
HLF	MA0043.1	-5.5135	1	0.825621	0.832465	0.0462203	1348
HOXA2	MA0900.1	-5.51855	1	0.856644	0.865156	0.0564406	1348
ZNF410	MA0752.1	-5.55478	1	0.672255	0.679596	0.0469123	1348
PBX1	MA0070.1	-5.66733	1	0.776977	0.78538	0.0521797	1348
Hoxc9	MA0485.1	-5.68068	1	0.773408	0.781995	0.0549307	1348
HNF1B	MA0153.1	-5.72617	1	0.770092	0.779414	0.0560951	1348
HNF1B	MA0153.2	-5.74493	1	0.712798	0.724146	0.0692829	1348
OLIG3	MA0827.1	-5.75937	1	0.811925	0.819464	0.0461159	1348
Hoxa9	MA0594.1	-5.77674	1	0.796746	0.805189	0.0525044	1348
HOXC10	MA0905.1	-5.8734	1	0.818258	0.828363	0.0627378	1348
OLIG2	MA0678.1	-5.88725	1	0.785288	0.793796	0.0506726	1348
HOXD12	MA0873.1	-5.92496	1	0.775121	0.783911	0.0540232	1348
HOXC12	MA0906.1	-5.92786	1	0.766702	0.775894	0.0563981	1348
GATA5	MA0766.1	-5.95822	1	0.86773	0.878	0.061634	1348
Hoxa11	MA0911.1	-6.03657	1	0.788979	0.797917	0.0531376	1348
HOXD11	MA0908.1	-6.17914	1	0.801671	0.812344	0.0632502	1348
MEIS1	MA0498.2	-6.23824	1	0.915855	0.925219	0.0547274	1348
HOXC11	MA0651.1	-6.25749	1	0.781624	0.791612	0.0579423	1348
MAFG::NFE2L1	MA0089.1	-6.32915	1	0.92578	0.934827	0.0517837	1348
YY1	MA0095.2	-7.06946	1	0.783626	0.794899	0.0503934	1348
YY1	MA0095.1	-7.79426	1	0.936299	0.947913	0.0602448	1348

Degrees of freedom: 33605
