TF_NAME	MATRIX_ID	Z_SCORE	P_VALUE	SAMPLE_AVERAGE	BACKGROUND_AVERAGE	SAMPLE_DEVSTD	SAMPLE_SIZE
EGR1	MA0162.2	17.6349	1.22678e-75	0.889681	0.869468	0.0575115	3140
SP2	MA0516.1	16.3524	5.46613e-65	0.892854	0.87299	0.0589107	3140
SP1	MA0079.2	16.1223	2.79246e-63	0.93564	0.918616	0.0514631	3140
SP1	MA0079.3	16.0893	9.6961e-63	0.927988	0.908975	0.055826	3140
EGR2	MA0472.1	15.5969	1.32756e-59	0.863853	0.84793	0.0510659	3140
E2F3	MA0469.1	15.0897	5.7974e-56	0.859252	0.841483	0.059149	3140
KLF5	MA0599.1	14.9955	9.65523e-55	0.9439	0.926791	0.0536546	3140
EGR3	MA0732.1	14.6553	4.42968e-53	0.79695	0.779822	0.0598724	3140
ZNF263	MA0528.1	14.209	9.79318e-51	0.838004	0.825375	0.0491586	3140
KLF16	MA0741.1	14.1704	2.23289e-49	0.887765	0.870111	0.0608222	3140
Egr1	MA0162.1	14.0603	6.20571e-49	0.865168	0.851114	0.0506457	3140
SP3	MA0746.1	14.0189	2.76119e-48	0.900043	0.88408	0.0549387	3140
E2F4	MA0470.1	13.8461	2.64595e-47	0.883666	0.866868	0.0597727	3140
EGR4	MA0733.1	13.4548	8.16982e-45	0.792376	0.779774	0.0463512	3140
ZNF740	MA0753.1	13.1537	8.20882e-43	0.852795	0.838009	0.054716	3140
E2F1	MA0024.2	12.9731	6.70541e-42	0.901426	0.887084	0.0554848	3140
ZIC3	MA0697.1	12.5128	2.78399e-39	0.796768	0.785624	0.0458203	3140
E2F6	MA0471.1	12.3883	1.59072e-38	0.90262	0.889822	0.0529944	3140
TFAP2A	MA0003.1	12.4435	1.9785e-38	0.954602	0.943405	0.043047	3140
EGR2	MA0472.2	12.2529	1.14053e-37	0.819883	0.807375	0.0518456	3140
TFAP2A(var.3)	MA0872.1	12.0423	1.6226e-36	0.81729	0.803336	0.0594608	3140
TFAP2C(var.3)	MA0815.1	11.9076	9.25699e-36	0.822066	0.808572	0.0582562	3140
Klf4	MA0039.2	11.6324	7.28806e-34	0.91656	0.902106	0.0597692	3140
ZIC1	MA0696.1	11.3391	1.2697e-32	0.783967	0.773636	0.0469235	3140
TFAP2B(var.3)	MA0813.1	11.1693	1.041e-31	0.827324	0.815264	0.0555705	3140
GLIS2	MA0736.1	11.0435	3.99506e-31	0.79729	0.787786	0.0449852	3140
PLAG1	MA0163.1	10.9135	2.52273e-30	0.810816	0.800376	0.0488631	3140
ZIC4	MA0751.1	10.8572	4.11252e-30	0.814898	0.805715	0.0438899	3140
TFAP2A(var.2)	MA0810.1	10.8582	6.5597e-30	0.882985	0.872752	0.0468684	3140
HINFP	MA0131.2	10.599	9.97106e-29	0.829302	0.818108	0.0541136	3140
SP8	MA0747.1	10.6246	1.14874e-28	0.880489	0.870051	0.0482621	3140
SP1	MA0079.1	10.5377	2.19367e-28	0.924235	0.916173	0.0389123	3140
TFAP2A	MA0003.3	10.3702	2.03874e-27	0.883447	0.873479	0.0473896	3140
Tcfl5	MA0632.1	10.2388	5.88532e-27	0.903832	0.891707	0.0609163	3140
RREB1	MA0073.1	10.1704	6.88694e-27	0.804557	0.795466	0.0486365	3140
Pax5	MA0014.1	9.65156	3.03751e-24	0.840505	0.835142	0.0291208	3140
NFKB1	MA0105.2	9.47916	1.93596e-23	0.821793	0.811815	0.0549729	3140
TFAP2B	MA0811.1	9.41674	5.08694e-23	0.865518	0.85696	0.0457652	3140
KLF14	MA0740.1	9.2413	3.43544e-22	0.827833	0.81772	0.0543043	3140
NRF1	MA0506.1	9.2351	4.42873e-22	0.855087	0.84302	0.0632063	3140
TFAP2C	MA0524.2	9.11499	1.06263e-21	0.861299	0.853055	0.0457032	3140
TFAP2B(var.2)	MA0812.1	9.05352	2.09678e-21	0.861934	0.852738	0.0508829	3140
SP4	MA0685.1	8.78095	3.04933e-20	0.801646	0.791498	0.0578002	3140
INSM1	MA0155.1	8.67261	6.0711e-20	0.86357	0.856791	0.0409943	3140
EWSR1-FLI1	MA0149.1	8.46482	2.75695e-19	0.696988	0.688264	0.0572593	3140
MZF1(var.2)	MA0057.1	8.37652	9.99192e-19	0.915989	0.910008	0.0374096	3140
MZF1	MA0056.1	8.3324	3.05706e-18	0.975812	0.969494	0.0354742	3140
ZBTB33	MA0527.1	8.00277	4.00035e-17	0.779566	0.771513	0.0502441	3140
TFAP2C(var.2)	MA0814.1	7.84957	1.59666e-16	0.866475	0.858963	0.04737	3140
Zfx	MA0146.1	7.60291	1.15432e-15	0.864415	0.855319	0.0605072	3140
Zfx	MA0146.2	7.53814	1.97791e-15	0.864012	0.854962	0.0607457	3140
NR2C2	MA0504.1	7.13973	4.63991e-14	0.828755	0.82372	0.0362133	3140
GCM2	MA0767.1	6.92142	2.13869e-13	0.840698	0.835184	0.0423713	3140
GLIS1	MA0735.1	6.92923	2.50463e-13	0.707085	0.701324	0.0422885	3140
Klf1	MA0493.1	6.83412	6.01759e-13	0.871753	0.865277	0.0465399	3140
Hes1	MA1099.1	6.68516	1.47037e-12	0.871534	0.864842	0.0517472	3140
NHLH1	MA0048.1	6.64714	1.83717e-12	0.828766	0.822495	0.0494147	3140
TFAP2C	MA0524.1	6.65506	1.97875e-12	0.85148	0.845535	0.0453996	3140
TFAP2A	MA0003.2	6.60833	2.86227e-12	0.819818	0.813673	0.0469754	3140
ZBTB7A	MA0750.1	6.50129	6.04874e-12	0.810995	0.804933	0.047448	3140
HEY1	MA0823.1	6.33061	1.86077e-11	0.812415	0.805066	0.0604568	3140
CTCF	MA0139.1	6.31719	2.08079e-11	0.783802	0.778675	0.0420875	3140
ZBTB7B	MA0694.1	5.99104	1.94393e-10	0.801456	0.796094	0.0464853	3140
Tcfcp2l1	MA0145.2	5.93878	2.85146e-10	0.840059	0.835631	0.0383509	3140
Tcfcp2l1	MA0145.1	5.92937	3.03385e-10	0.840346	0.835927	0.0383373	3140
ZBTB7C	MA0695.1	5.91295	3.29501e-10	0.826837	0.821945	0.0428808	3140
NFKB2	MA0778.1	5.77063	8.01713e-10	0.761897	0.755841	0.0550404	3140
THAP1	MA0597.1	5.75529	9.32282e-10	0.924583	0.92132	0.0292856	3140
Mycn	MA0104.2	5.69409	1.25103e-09	0.842708	0.836938	0.0538846	3140
NHLH1	MA0048.2	5.65056	1.67385e-09	0.833198	0.827352	0.0548008	3140
NFKB1	MA0105.4	5.63296	1.98007e-09	0.728074	0.722263	0.0537301	3140
HES7	MA0822.1	5.58199	2.69347e-09	0.735429	0.729702	0.0536501	3140
HES5	MA0821.1	5.20333	2.6592e-08	0.75285	0.747707	0.0518282	3140
GLIS3	MA0737.1	5.19294	2.98597e-08	0.746635	0.742653	0.0394198	3140
Myc	MA0147.1	5.05697	5.91691e-08	0.84499	0.840379	0.0486513	3140
E2F1	MA0024.3	4.98522	1.01134e-07	0.773526	0.769214	0.0439206	3140
NFKB1	MA0105.1	4.96297	1.01837e-07	0.846299	0.841469	0.0517547	3140
E2F1	MA0024.1	4.88529	1.6814e-07	0.833673	0.828484	0.0549921	3140
Myod1	MA0499.1	4.87018	1.7292e-07	0.866984	0.862276	0.0511791	3140
REST	MA0138.1	4.81158	2.45781e-07	0.745526	0.742119	0.0370401	3140
Myog	MA0500.1	4.72049	3.83705e-07	0.876266	0.871469	0.0541953	3140
HEY2	MA0649.1	4.57498	8.59589e-07	0.818846	0.814124	0.0541813	3140
CENPB	MA0637.1	4.34433	2.79449e-06	0.785581	0.782602	0.0358816	3140
ARNT::HIF1A	MA0259.1	4.28385	3.74683e-06	0.894846	0.890055	0.0586655	3140
GCM1	MA0646.1	4.26383	3.96737e-06	0.807856	0.804497	0.0421858	3140
Gmeb1	MA0615.1	4.14147	7.76657e-06	0.82046	0.817096	0.0416113	3140
EBF1	MA0154.1	4.10172	8.72338e-06	0.880524	0.877004	0.0457503	3140
Klf12	MA0742.1	4.05666	1.16974e-05	0.81326	0.8094	0.0483945	3140
PAX5	MA0014.2	3.98931	1.57975e-05	0.815478	0.813061	0.0309888	3140
Tcf12	MA0521.1	3.85199	2.74154e-05	0.866287	0.862419	0.05357	3140
KLF13	MA0657.1	3.50361	0.000124765	0.741923	0.739042	0.0430608	3140
REST	MA0138.2	3.07843	0.000635454	0.692204	0.689923	0.0393432	3140
ESR1	MA0112.1	3.02267	0.000784353	0.789005	0.786878	0.0370619	3140
Tcf3	MA0522.1	2.96366	0.000973445	0.872911	0.870059	0.0503873	3140
EBF1	MA0154.2	2.95776	0.000976882	0.870347	0.867655	0.0484882	3140
MTF1	MA0863.1	2.92055	0.0010911	0.730635	0.728442	0.0408097	3140
Ascl2	MA0816.1	2.87523	0.00128477	0.838771	0.83595	0.0530322	3140
Ahr::Arnt	MA0006.1	2.80646	0.00162185	0.916069	0.912679	0.0654637	3140
Pparg::Rxra	MA0065.2	2.59395	0.00332437	0.813424	0.811619	0.0367526	3140
Mafb	MA0117.1	2.52433	0.00418572	0.922999	0.9213	0.034906	3140
Znf423	MA0116.1	2.43629	0.00538068	0.827984	0.826011	0.0430172	3140
ESR1	MA0112.2	2.43837	0.00542649	0.732386	0.730563	0.0388734	3140
HIC2	MA0738.1	2.37108	0.00656069	0.90687	0.905024	0.0410652	3140
GLI2	MA0734.1	2.1163	0.0134968	0.776818	0.774958	0.0458521	3140
HINFP	MA0131.1	1.6896	0.0389072	0.810241	0.808807	0.0436587	3140
TCF4	MA0830.1	1.50087	0.0582007	0.890393	0.888863	0.0537358	3140
RELA	MA0107.1	1.41661	0.0686379	0.827619	0.82621	0.0539711	3140
CREB1	MA0018.1	1.4168	0.0692437	0.842314	0.841087	0.0454337	3140
NFKB1	MA0105.3	1.41083	0.0693252	0.832389	0.831028	0.0526607	3140
Arnt	MA0004.1	1.36812	0.0754685	0.862405	0.86067	0.0693221	3140
SPI1	MA0080.1	1.35187	0.0785493	0.979197	0.978326	0.0341428	3140
BHLHE40	MA0464.2	1.24687	0.0961266	0.810594	0.809186	0.0593393	3140
RARA::RXRA	MA0159.1	1.05043	0.135497	0.798317	0.79765	0.0340834	3140
TCF3	MA0522.2	0.895046	0.174516	0.889178	0.888267	0.0537458	3140
Mycn	MA0104.1	0.881929	0.177613	0.884113	0.883111	0.061237	3140
EHF	MA0598.1	0.860596	0.184178	0.891354	0.890332	0.0621191	3140
EBF1	MA0154.3	0.856158	0.185063	0.772585	0.77179	0.0493327	3140
MAX	MA0058.3	0.535642	0.286924	0.823909	0.8233	0.0622436	3140
Id2	MA0617.1	0.473993	0.309468	0.823193	0.822563	0.0723471	3140
Spz1	MA0111.1	0.445539	0.320785	0.86691	0.866652	0.0301858	3140
Mlxip	MA0622.1	0.440027	0.322126	0.824163	0.823564	0.0741407	3140
MNT	MA0825.1	0.439378	0.322249	0.835264	0.834785	0.0598204	3140
PAX1	MA0779.1	0.313183	0.371637	0.748299	0.748098	0.0336747	3140
ZNF354C	MA0130.1	0.300657	0.376585	0.962498	0.962286	0.0370413	3140
MAX::MYC	MA0059.1	0.227548	0.405777	0.797648	0.797438	0.0496001	3140
NFYA	MA0060.1	0.21708	0.409617	0.811924	0.811683	0.0622458	3140
znf143	MA0088.1	0.209479	0.413673	0.82204	0.821912	0.0306288	3140
ID4	MA0824.1	0.16337	0.432031	0.872031	0.871872	0.0522737	3140
RFX5	MA0510.1	0.0746115	0.468887	0.841689	0.841637	0.0370183	3140
NFIC::TLX1	MA0119.1	0.0710927	0.470365	0.73858	0.738514	0.049056	3140
NFIX	MA0671.1	0.0418893	0.48255	0.930006	0.929978	0.0351561	3140
Erg	MA0474.1	-0.0989446	0.541284	0.866418	0.86651	0.0495965	3140
USF1	MA0093.1	-0.171543	0.571481	0.855969	0.85618	0.0675947	3140
Mycn	MA0104.3	-0.275352	0.61377	0.83689	0.83722	0.0656767	3140
Ets1	MA0098.2	-0.291456	0.619862	0.832313	0.832561	0.0452293	3140
NFYA	MA0060.2	-0.384749	0.656889	0.754359	0.754719	0.0511986	3140
PAX9	MA0781.1	-0.456147	0.683218	0.721907	0.722222	0.0360829	3140
Nkx2-5(var.2)	MA0503.1	-0.555398	0.719724	0.853025	0.85346	0.0420901	3140
Arntl	MA0603.1	-0.570629	0.724899	0.816291	0.816921	0.0587073	3140
ESR2	MA0258.2	-0.608255	0.737901	0.799609	0.800071	0.0404074	3140
Creb3l2	MA0608.1	-0.636137	0.747508	0.830148	0.830789	0.0541118	3140
E2F8	MA0865.1	-0.641416	0.749389	0.731738	0.732308	0.047989	3140
Hes2	MA0616.1	-0.641733	0.749981	0.813805	0.814283	0.0411896	3140
Bhlhe40	MA0464.1	-0.655677	0.753949	0.839653	0.84027	0.0504635	3140
SMAD2::SMAD3::SMAD4	MA0513.1	-0.676299	0.75999	0.805637	0.80621	0.0438758	3140
NFYB	MA0502.1	-0.776265	0.792981	0.794926	0.795766	0.0605031	3140
TP63	MA0525.1	-0.802703	0.799315	0.781431	0.781985	0.0361178	3140
MAX	MA0058.1	-0.837956	0.810082	0.834994	0.835881	0.0568919	3140
Klf4	MA0039.1	-0.922547	0.833411	0.918395	0.91899	0.0350087	3140
NFIC	MA0161.1	-0.937274	0.836628	0.94694	0.947575	0.0358241	3140
HNF4A	MA0114.1	-0.962023	0.842829	0.815258	0.816004	0.0407935	3140
Atoh1	MA0461.1	-1.0338	0.86084	0.87458	0.875672	0.0571374	3140
TP53	MA0106.1	-1.0468	0.863228	0.70351	0.704217	0.0355475	3140
BHLHE41	MA0636.1	-1.05196	0.864149	0.773959	0.775072	0.0550744	3140
CREB3L1	MA0839.1	-1.06924	0.868752	0.735778	0.736647	0.0436314	3140
Bach1::Mafk	MA0591.1	-1.08617	0.872417	0.765067	0.765945	0.043287	3140
REL	MA0101.1	-1.0844	0.872463	0.868761	0.869667	0.0455427	3140
TFE3	MA0831.1	-1.11319	0.877888	0.832867	0.833911	0.0494472	3140
Hic1	MA0739.1	-1.41539	0.930622	0.863278	0.86442	0.0425043	3140
Myb	MA0100.1	-1.43276	0.933113	0.883591	0.884846	0.046363	3140
Spi1	MA0080.3	-1.43039	0.933232	0.823518	0.824684	0.0441844	3140
Stat3	MA0144.1	-1.46129	0.937227	0.827263	0.828684	0.0524002	3140
ZEB1	MA0103.2	-1.58075	0.950361	0.857015	0.858712	0.0546536	3140
FIGLA	MA0820.1	-1.67218	0.959872	0.862664	0.864214	0.0488565	3140
Npas2	MA0626.1	-1.82955	0.972721	0.838704	0.840649	0.0586156	3140
ESR1	MA0112.3	-1.91006	0.977268	0.713444	0.715001	0.0434965	3140
HSF1	MA0486.1	-1.94142	0.979125	0.777657	0.779378	0.0479619	3140
FLI1	MA0475.1	-2.05617	0.984015	0.857528	0.859416	0.0469198	3140
HNF4A	MA0114.2	-2.13136	0.987168	0.808486	0.810174	0.0420807	3140
PRDM1	MA0508.1	-2.14607	0.98813	0.785563	0.78753	0.0518915	3140
Mitf	MA0620.1	-2.20193	0.989375	0.85386	0.855895	0.0487535	3140
HNF4G	MA0484.1	-2.42164	0.994398	0.821484	0.823329	0.0406861	3140
Hnf4a	MA0114.3	-2.49472	0.995461	0.717727	0.719738	0.0424085	3140
RFX2	MA0600.1	-2.57704	0.996455	0.762591	0.764721	0.0430253	3140
CREB3	MA0638.1	-2.60306	0.996822	0.757665	0.759878	0.0458054	3140
CLOCK	MA0819.1	-2.61152	0.996923	0.80637	0.808681	0.0480125	3140
SNAI2	MA0745.1	-2.61342	0.996959	0.892376	0.894949	0.0537581	3140
Gabpa	MA0062.2	-2.83392	0.998284	0.837283	0.840247	0.0467719	3140
SREBF1	MA0595.1	-2.81085	0.998363	0.850129	0.852573	0.0459056	3140
Rfx1	MA0509.1	-2.96139	0.999012	0.779092	0.781736	0.0463971	3140
TFEB	MA0692.1	-3.02795	0.99924	0.818371	0.821381	0.0529692	3140
XBP1	MA0844.1	-3.03091	0.999259	0.751452	0.753923	0.0440455	3140
MLXIPL	MA0664.1	-3.04	0.999277	0.79199	0.795191	0.0565061	3140
ELK1	MA0028.1	-3.06615	0.99928	0.893111	0.895477	0.0377351	3140
SCRT2	MA0744.1	-3.05355	0.999334	0.754494	0.757214	0.0491708	3140
TEAD1	MA0090.1	-3.11912	0.999465	0.80942	0.812154	0.0474685	3140
Nr2f6	MA0677.1	-3.19726	0.999587	0.742164	0.744786	0.0431058	3140
HSF4	MA0771.1	-3.21128	0.999627	0.779129	0.782006	0.0491214	3140
Meis1	MA0498.1	-3.25985	0.999688	0.80599	0.808932	0.0492142	3140
GABPA	MA0062.1	-3.30594	0.999691	0.851925	0.855049	0.0441577	3140
RXRB	MA0855.1	-3.33109	0.999757	0.717256	0.720119	0.0457797	3140
ESR2	MA0258.1	-3.33052	0.999757	0.784632	0.786822	0.0351043	3140
TBX5	MA0807.1	-3.38783	0.999795	0.869434	0.872347	0.043863	3140
MYBL2	MA0777.1	-3.37158	0.999799	0.709033	0.711734	0.0436915	3140
RXRA::VDR	MA0074.1	-3.39806	0.999814	0.75368	0.756179	0.0393622	3140
MSC	MA0665.1	-3.42329	0.999833	0.804871	0.807899	0.047473	3140
SCRT1	MA0743.1	-3.43276	0.999845	0.74691	0.749896	0.0480354	3140
MLX	MA0663.1	-3.46347	0.999855	0.769501	0.773097	0.0549171	3140
ELK4	MA0076.2	-3.51719	0.999861	0.848183	0.851735	0.0458941	3140
Myc	MA0147.2	-3.49439	0.999875	0.841162	0.844564	0.0523034	3140
RARA(var.2)	MA0730.1	-3.4993	0.99988	0.708416	0.711105	0.0418267	3140
Rxra	MA0512.2	-3.51267	0.999882	0.7203	0.723309	0.0454786	3140
TBX15	MA0803.1	-3.56365	0.999899	0.831877	0.835526	0.0522128	3140
Vdr	MA0693.1	-3.55635	0.999903	0.72998	0.732509	0.0380362	3140
Sox3	MA0514.1	-3.56584	0.999911	0.870214	0.873564	0.0519429	3140
Gata1	MA0035.1	-3.55663	0.999916	0.974645	0.976614	0.0324752	3140
Ar	MA0007.3	-3.71065	0.999948	0.722129	0.72514	0.0425773	3140
SPDEF	MA0686.1	-3.80197	0.999962	0.797668	0.800994	0.0433845	3140
RXRG	MA0856.1	-3.78481	0.999963	0.72709	0.730299	0.0452419	3140
PPARG::RXRA	MA0065.1	-3.84532	0.999972	0.720438	0.723401	0.0413075	3140
Tcf21	MA0832.1	-3.88443	0.999976	0.733784	0.737391	0.0492131	3140
TFEC	MA0871.1	-3.93206	0.999981	0.857217	0.860454	0.0434283	3140
Hand1::Tcf3	MA0092.1	-3.93793	0.999982	0.878069	0.880929	0.0389523	3140
NR2F1	MA0017.2	-3.9583	0.999983	0.806402	0.810291	0.0517788	3140
USF1	MA0093.2	-4.00856	0.999987	0.815303	0.819393	0.0547389	3140
Bcl6	MA0463.1	-3.99398	0.999987	0.790042	0.793633	0.0500623	3140
TBP	MA0108.1	-4.00194	0.999988	0.814503	0.8189	0.0626269	3140
Rxra	MA0512.1	-4.03517	0.999988	0.854107	0.857643	0.0467858	3140
NFATC2	MA0152.1	-4.01986	0.999989	0.899379	0.903491	0.0578658	3140
Nr1h3::Rxra	MA0494.1	-4.03723	0.999989	0.791594	0.794227	0.0357845	3140
NFIA	MA0670.1	-4.04776	0.999989	0.838793	0.843618	0.0644405	3140
TBP	MA0108.2	-4.03385	0.99999	0.815642	0.820003	0.0616733	3140
Pax4	MA0068.1	-4.12843	0.999993	0.759109	0.761779	0.0367111	3140
TFAP4	MA0691.1	-4.1546	0.999993	0.790991	0.795377	0.0565605	3140
SPI1	MA0080.2	-4.16728	0.999994	0.911515	0.915001	0.0453102	3140
RUNX3	MA0684.1	-4.19535	0.999995	0.819526	0.823149	0.0470556	3140
Atf1	MA0604.1	-4.22327	0.999995	0.834755	0.839186	0.056103	3140
RUNX2	MA0511.2	-4.28106	0.999996	0.826294	0.830131	0.0484667	3140
ELF1	MA0473.1	-4.32923	0.999997	0.831736	0.835716	0.0470304	3140
TP53	MA0106.2	-4.34906	0.999997	0.752972	0.756296	0.041327	3140
IRF2	MA0051.1	-4.36667	0.999998	0.749634	0.753504	0.0500201	3140
SMAD3	MA0795.1	-4.40148	0.999998	0.749059	0.75316	0.0497178	3140
Bhlha15	MA0607.1	-4.39985	0.999998	0.853209	0.857625	0.0538303	3140
E2F7	MA0758.1	-4.42352	0.999998	0.687269	0.691323	0.0494788	3140
USF2	MA0526.1	-4.49051	0.999999	0.824979	0.829461	0.0530508	3140
STAT1	MA0137.1	-4.47352	0.999999	0.78046	0.784777	0.0546161	3140
HSF1	MA0486.2	-4.52551	0.999999	0.734342	0.738961	0.0565062	3140
SRF	MA0083.1	-4.51307	0.999999	0.738459	0.742594	0.0521131	3140
E2F3	MA0469.2	-4.5711	0.999999	0.69859	0.702218	0.0431969	3140
ZEB1	MA0103.1	-4.58246	0.999999	0.947486	0.951984	0.0536216	3140
Sox2	MA0143.3	-4.58153	0.999999	0.848558	0.853942	0.0657178	3140
TP73	MA0861.1	-4.64069	0.999999	0.739121	0.742591	0.0396371	3140
MGA	MA0801.1	-4.68081	0.999999	0.85277	0.857223	0.049516	3140
RUNX1	MA0002.2	-4.73634	1	0.848165	0.85203	0.0444425	3140
PPARG	MA0066.1	-4.75308	1	0.738201	0.741217	0.0341201	3140
ESRRA	MA0592.1	-4.78698	1	0.811834	0.816193	0.0475892	3140
ETV5	MA0765.1	-4.83791	1	0.856347	0.860947	0.0440783	3140
Rarg(var.2)	MA0860.1	-4.80822	1	0.691963	0.695951	0.0442361	3140
NR2F1	MA0017.1	-4.8397	1	0.815978	0.819497	0.0380821	3140
TP53	MA0106.3	-4.82977	1	0.704452	0.707952	0.0388428	3140
STAT1	MA0137.3	-4.82536	1	0.821036	0.826028	0.057099	3140
STAT1	MA0137.2	-4.98338	1	0.783151	0.78796	0.052156	3140
TBX20	MA0689.1	-4.98845	1	0.796602	0.80103	0.0488471	3140
ZBTB18	MA0698.1	-5.02253	1	0.789058	0.793748	0.0507734	3140
STAT3	MA0144.2	-5.02208	1	0.85311	0.857798	0.0521342	3140
Nr5a2	MA0505.1	-5.07791	1	0.774918	0.77927	0.0445283	3140
IRF9	MA0653.1	-5.05044	1	0.684887	0.689654	0.0532321	3140
SREBF2	MA0596.1	-5.08832	1	0.830175	0.83477	0.0481096	3140
IRF8	MA0652.1	-5.0885	1	0.711434	0.716052	0.0511553	3140
ELK4	MA0076.1	-5.20175	1	0.816447	0.822032	0.0491528	3140
IRF1	MA0050.2	-5.16643	1	0.741085	0.746895	0.0640621	3140
Stat4	MA0518.1	-5.19831	1	0.827981	0.83281	0.0511807	3140
Sox6	MA0515.1	-5.22355	1	0.858393	0.863524	0.0539654	3140
Stat5a::Stat5b	MA0519.1	-5.23159	1	0.842323	0.847323	0.0520554	3140
RFX5	MA0510.2	-5.30719	1	0.705396	0.710403	0.0489454	3140
RUNX2	MA0511.1	-5.32547	1	0.806965	0.811418	0.0457645	3140
TBX1	MA0805.1	-5.35468	1	0.828009	0.833665	0.0551413	3140
MEIS2	MA0774.1	-5.34131	1	0.855339	0.860932	0.0572755	3140
Ar	MA0007.1	-5.36967	1	0.776722	0.77988	0.0310309	3140
Rarb(var.2)	MA0858.1	-5.39344	1	0.697017	0.701398	0.0445465	3140
TFCP2	MA0145.3	-5.41042	1	0.798144	0.802894	0.0472496	3140
RHOXF1	MA0719.1	-5.42268	1	0.943809	0.947404	0.0359302	3140
ETS1	MA0098.1	-5.40825	1	0.985426	0.987679	0.024971	3140
NRL	MA0842.1	-5.51008	1	0.847051	0.851531	0.0438605	3140
HSF2	MA0770.1	-5.50988	1	0.746927	0.752429	0.0546893	3140
STAT1::STAT2	MA0517.1	-5.49806	1	0.776709	0.782449	0.0594976	3140
GMEB2	MA0862.1	-5.51917	1	0.808146	0.813599	0.054584	3140
SREBF2(var.2)	MA0828.1	-5.55127	1	0.775156	0.780847	0.0536778	3140
Srebf1(var.2)	MA0829.1	-5.5672	1	0.780274	0.786008	0.0540238	3140
NFATC1	MA0624.1	-5.54101	1	0.874909	0.880178	0.0535584	3140
TBX21	MA0690.1	-5.57078	1	0.795141	0.800339	0.0505495	3140
MYBL1	MA0776.1	-5.60246	1	0.738441	0.743249	0.0468758	3140
NKX2-3	MA0672.1	-5.61385	1	0.857981	0.862838	0.0468787	3140
BCL6B	MA0731.1	-5.69045	1	0.66322	0.668037	0.0463088	3140
Nr2e3	MA0164.1	-5.70814	1	0.822472	0.830093	0.0742097	3140
MYF6	MA0667.1	-5.76063	1	0.784738	0.790391	0.0529117	3140
ZNF143	MA0088.2	-5.79282	1	0.742165	0.746757	0.0407967	3140
ETV6	MA0645.1	-5.90792	1	0.844518	0.850307	0.0446731	3140
NFAT5	MA0606.1	-5.80171	1	0.866055	0.871759	0.0553489	3140
Esrrb	MA0141.2	-5.85572	1	0.815498	0.820851	0.0477241	3140
CREB1	MA0018.2	-5.87841	1	0.869914	0.875188	0.0489295	3140
NFATC3	MA0625.1	-5.87364	1	0.8563	0.862218	0.0572844	3140
MAX	MA0058.2	-5.91738	1	0.820845	0.826855	0.0541021	3140
SPIB	MA0081.1	-5.90745	1	0.933061	0.938571	0.0526257	3140
Esrrb	MA0141.1	-5.95647	1	0.8153	0.820741	0.0477418	3140
TEAD3	MA0808.1	-5.93395	1	0.864387	0.870437	0.0561492	3140
Pax6	MA0069.1	-5.96883	1	0.763853	0.768231	0.0404853	3140
IRF1	MA0050.1	-5.98604	1	0.807524	0.813635	0.058241	3140
NR1H2::RXRA	MA0115.1	-6.04718	1	0.669754	0.674827	0.0451334	3140
TEAD1	MA0090.2	-6.05596	1	0.869107	0.874192	0.0458551	3140
NKX2-8	MA0673.1	-6.07818	1	0.890797	0.895312	0.0398673	3140
TBX4	MA0806.1	-6.10479	1	0.857297	0.862895	0.0477803	3140
ETV1	MA0761.1	-6.23546	1	0.83456	0.840459	0.0435832	3140
SPI1	MA0080.4	-6.16978	1	0.734741	0.740711	0.0523907	3140
SPIC	MA0687.1	-6.17714	1	0.79862	0.803837	0.0469535	3140
TEAD4	MA0809.1	-6.19316	1	0.868728	0.874692	0.0530681	3140
TBR1	MA0802.1	-6.24209	1	0.797039	0.802898	0.0509907	3140
E2F2	MA0864.1	-6.24058	1	0.681843	0.687293	0.0484134	3140
Myb	MA0100.2	-6.2565	1	0.845219	0.851077	0.0509762	3140
OTX1	MA0711.1	-6.33595	1	0.85246	0.859531	0.0599791	3140
FOSL2	MA0478.1	-6.33714	1	0.815476	0.822062	0.0558554	3140
ELK1	MA0028.2	-6.45713	1	0.797187	0.804262	0.0484565	3140
ZBED1	MA0749.1	-6.38688	1	0.69547	0.700676	0.0434132	3140
IRF7	MA0772.1	-6.34266	1	0.753969	0.760721	0.0610318	3140
T	MA0009.2	-6.41473	1	0.695214	0.700348	0.0433163	3140
SRF	MA0083.3	-6.39632	1	0.678299	0.684202	0.0518036	3140
TGIF2	MA0797.1	-6.49511	1	0.724928	0.731025	0.0488285	3140
Crx	MA0467.1	-6.47756	1	0.812658	0.818379	0.0479052	3140
Nfe2l2	MA0150.2	-6.50955	1	0.740845	0.746431	0.0463798	3140
EOMES	MA0800.1	-6.55114	1	0.780643	0.78645	0.0483715	3140
Pax2	MA0067.1	-6.55576	1	0.921725	0.926491	0.0402114	3140
FOSL1	MA0477.1	-6.61279	1	0.809802	0.816768	0.0570126	3140
YY2	MA0748.1	-6.73814	1	0.796441	0.802534	0.0449891	3140
JUNB	MA0490.1	-6.71515	1	0.810976	0.81824	0.0590258	3140
ELF4	MA0641.1	-6.8078	1	0.772456	0.77908	0.0463299	3140
T	MA0009.1	-6.76912	1	0.745594	0.751873	0.0499774	3140
TBX2	MA0688.1	-6.76727	1	0.814283	0.82001	0.0457824	3140
EN2	MA0642.1	-6.75985	1	0.858318	0.864632	0.0530288	3140
Gfi1	MA0038.1	-6.77657	1	0.860534	0.867613	0.0584119	3140
SRF	MA0083.2	-6.78001	1	0.752698	0.758865	0.0519988	3140
TCF7L2	MA0523.1	-6.82043	1	0.807619	0.813979	0.0508256	3140
PKNOX2	MA0783.1	-6.85524	1	0.71662	0.723233	0.0498747	3140
ELF1	MA0473.2	-6.90812	1	0.772945	0.77973	0.0468268	3140
ETV4	MA0764.1	-6.9173	1	0.839819	0.846146	0.0429518	3140
TGIF1	MA0796.1	-6.89669	1	0.690178	0.697219	0.0531174	3140
FOXO3	MA0157.1	-6.84738	1	0.86289	0.87057	0.0629564	3140
Ddit3::Cebpa	MA0019.1	-6.88161	1	0.820847	0.826474	0.0438288	3140
Alx4	MA0853.1	-6.89199	1	0.734199	0.741758	0.0611174	3140
BATF3	MA0835.1	-6.92765	1	0.656682	0.663617	0.0531937	3140
Lhx8	MA0705.1	-6.90936	1	0.855433	0.863628	0.0651339	3140
Tcf7	MA0769.1	-6.92328	1	0.751999	0.75914	0.0556917	3140
NFE2L2	MA0150.1	-6.99853	1	0.805119	0.811346	0.0474876	3140
ELK3	MA0759.1	-7.10056	1	0.81938	0.826539	0.045741	3140
ISL2	MA0914.1	-6.97858	1	0.859681	0.866739	0.0563338	3140
Nr2f6(var.2)	MA0728.1	-7.05867	1	0.707671	0.713974	0.046981	3140
PKNOX1	MA0782.1	-7.09536	1	0.71072	0.717782	0.0515166	3140
Dux	MA0611.1	-7.04841	1	0.838513	0.848276	0.0767992	3140
Tal1::Gata1	MA0140.1	-7.10391	1	0.778025	0.784183	0.047296	3140
Barhl1	MA0877.1	-7.10151	1	0.86588	0.873088	0.0578174	3140
LEF1	MA0768.1	-7.17348	1	0.738903	0.745935	0.0535572	3140
PITX3	MA0714.1	-7.20159	1	0.846357	0.854123	0.058488	3140
FOXP3	MA0850.1	-7.20991	1	0.902085	0.908778	0.0516898	3140
NR3C1	MA0113.1	-7.24747	1	0.824464	0.829008	0.0346739	3140
Gata4	MA0482.1	-7.26894	1	0.841933	0.848571	0.0492834	3140
PROX1	MA0794.1	-7.27069	1	0.752704	0.758691	0.0447298	3140
ETS1	MA0098.3	-7.37693	1	0.838574	0.845539	0.044402	3140
RFX3	MA0798.1	-7.35098	1	0.741815	0.748255	0.0456931	3140
SOX10	MA0442.1	-7.30581	1	0.941905	0.947882	0.0462095	3140
TAL1::TCF3	MA0091.1	-7.3561	1	0.806186	0.812747	0.0481629	3140
Rhox11	MA0629.1	-7.33488	1	0.787738	0.793761	0.0456468	3140
Foxo1	MA0480.1	-7.34086	1	0.823983	0.831747	0.0591282	3140
Nkx3-2	MA0122.1	-7.34101	1	0.894916	0.900659	0.0445795	3140
NR4A2	MA0160.1	-7.38459	1	0.887795	0.89397	0.0455072	3140
Arid3a	MA0151.1	-7.37937	1	0.880139	0.892365	0.0918035	3140
Hmx1	MA0896.1	-7.41881	1	0.751751	0.758658	0.0523542	3140
Atf3	MA0605.1	-7.47565	1	0.8272	0.83479	0.0544154	3140
LBX2	MA0699.1	-7.48384	1	0.838728	0.84726	0.0634997	3140
HOXD13	MA0909.1	-7.46011	1	0.822041	0.831817	0.0754689	3140
NKX3-2	MA0122.2	-7.50668	1	0.836113	0.843545	0.0540243	3140
HOXA13	MA0650.1	-7.48649	1	0.817742	0.827308	0.0734112	3140
ERG	MA0474.2	-7.62118	1	0.84073	0.847826	0.0444132	3140
FOXP2	MA0593.1	-7.51771	1	0.816438	0.826008	0.0710671	3140
Stat6	MA0520.1	-7.54005	1	0.802108	0.80975	0.0561936	3140
ERF	MA0760.1	-7.6582	1	0.823507	0.830552	0.0427259	3140
ELF5	MA0136.1	-7.5323	1	0.89777	0.903515	0.0433748	3140
FLI1	MA0475.2	-7.69508	1	0.820918	0.828466	0.0459517	3140
Mafb	MA0117.2	-7.60995	1	0.806291	0.813106	0.0487398	3140
LIN54	MA0619.1	-7.59134	1	0.83804	0.850149	0.0890664	3140
GATA3	MA0037.2	-7.61003	1	0.824006	0.833491	0.0684886	3140
FOXH1	MA0479.1	-7.6288	1	0.812731	0.820865	0.0583867	3140
FOXP1	MA0481.1	-7.61543	1	0.789489	0.799665	0.0747707	3140
BATF::JUN	MA0462.1	-7.65341	1	0.814357	0.822256	0.0573593	3140
NFE2	MA0841.1	-7.68131	1	0.747835	0.756049	0.0577826	3140
FOXG1	MA0613.1	-7.65736	1	0.815569	0.826806	0.0817341	3140
ELF3	MA0640.1	-7.73922	1	0.762182	0.769102	0.045178	3140
JDP2(var.2)	MA0656.1	-7.71472	1	0.729638	0.738528	0.06284	3140
ELF5	MA0136.2	-7.76614	1	0.857093	0.863568	0.04307	3140
FOS	MA0476.1	-7.729	1	0.81078	0.819531	0.0616207	3140
Hoxd9	MA0913.1	-7.70694	1	0.846951	0.855823	0.0652797	3140
GATA2	MA0036.1	-7.64753	1	0.971823	0.975848	0.0319424	3140
Pitx1	MA0682.1	-7.76477	1	0.856342	0.864834	0.0586193	3140
Nkx3-1	MA0124.2	-7.75642	1	0.825215	0.83294	0.0545792	3140
JUN(var.2)	MA0489.1	-7.78078	1	0.793191	0.801044	0.0555255	3140
OTX2	MA0712.1	-7.78935	1	0.85342	0.862694	0.0648854	3140
EHF	MA0598.2	-7.86403	1	0.77537	0.782676	0.0461051	3140
TBX19	MA0804.1	-7.79945	1	0.67726	0.683416	0.0429508	3140
GSX2	MA0893.1	-7.7839	1	0.841047	0.850379	0.0667475	3140
MSX1	MA0666.1	-7.79673	1	0.852677	0.862099	0.0673404	3140
RAX2	MA0717.1	-7.80352	1	0.849714	0.860036	0.0736805	3140
MEIS3	MA0775.1	-7.84857	1	0.879182	0.886691	0.0520391	3140
JUND	MA0491.1	-7.87229	1	0.802459	0.810697	0.0566553	3140
RFX2	MA0600.2	-7.90398	1	0.708838	0.716323	0.0491685	3140
HOXB13	MA0901.1	-7.82699	1	0.808527	0.818424	0.0727337	3140
FEV	MA0156.2	-7.98925	1	0.832243	0.839905	0.0449932	3140
Gata1	MA0035.3	-7.88843	1	0.806546	0.814958	0.0580462	3140
Arid3b	MA0601.1	-7.86422	1	0.781579	0.795525	0.0996545	3140
RFX4	MA0799.1	-7.92621	1	0.75858	0.765401	0.0447779	3140
GSC2	MA0891.1	-7.89441	1	0.843504	0.851238	0.0535016	3140
Foxj3	MA0851.1	-7.90033	1	0.771175	0.781121	0.0702304	3140
Gfi1b	MA0483.1	-7.91619	1	0.829574	0.837167	0.052751	3140
FOXD2	MA0847.1	-7.90812	1	0.892483	0.900878	0.0604764	3140
UNCX	MA0721.1	-7.94054	1	0.845374	0.856281	0.0765814	3140
ISX	MA0654.1	-7.95784	1	0.830512	0.84241	0.0828912	3140
MSX2	MA0708.1	-7.9505	1	0.829318	0.840146	0.0763818	3140
NEUROD2	MA0668.1	-8.02367	1	0.844269	0.849987	0.0367188	3140
Pou2f3	MA0627.1	-7.95021	1	0.737763	0.747762	0.0711248	3140
PAX4	MA0068.2	-7.97572	1	0.806359	0.816749	0.0721746	3140
Shox2	MA0720.1	-7.99602	1	0.840817	0.852377	0.0810237	3140
Sox2	MA0143.2	-7.99352	1	0.752396	0.759899	0.0527783	3140
Alx1	MA0854.1	-8.02062	1	0.734642	0.743998	0.0644683	3140
FEV	MA0156.1	-8.04638	1	0.871606	0.880508	0.0594739	3140
ATF7	MA0834.1	-8.05733	1	0.718677	0.72776	0.0609846	3140
Dmbx1	MA0883.1	-8.05935	1	0.778024	0.785515	0.0505304	3140
Crem	MA0609.1	-8.04679	1	0.769167	0.7788	0.0669821	3140
Sox2	MA0143.1	-8.04327	1	0.751581	0.759136	0.0528332	3140
BARHL2	MA0635.1	-8.04319	1	0.855416	0.86371	0.0584425	3140
NKX6-1	MA0674.1	-8.08206	1	0.853966	0.8641	0.0689901	3140
FOXI1	MA0042.2	-8.07444	1	0.839418	0.849982	0.0734057	3140
MEF2A	MA0052.1	-8.08393	1	0.770707	0.782597	0.0823209	3140
POU3F4	MA0789.1	-8.08731	1	0.778269	0.789875	0.0804615	3140
FOXO3	MA0157.2	-8.09943	1	0.813892	0.824072	0.070051	3140
ALX3	MA0634.1	-8.11367	1	0.823232	0.833505	0.0703218	3140
RARA	MA0729.1	-8.14815	1	0.688758	0.695259	0.0427139	3140
Prrx2	MA0075.2	-8.11404	1	0.852061	0.862839	0.0744106	3140
GBX1	MA0889.1	-8.1215	1	0.807929	0.817983	0.069279	3140
Rarg	MA0859.1	-8.17025	1	0.697265	0.704608	0.0476086	3140
NR3C2	MA0727.1	-8.18105	1	0.71407	0.721231	0.0462839	3140
GSX1	MA0892.1	-8.14572	1	0.857665	0.866129	0.0576973	3140
POU2F2	MA0507.1	-8.14182	1	0.770062	0.780958	0.0748615	3140
SHOX	MA0630.1	-8.13885	1	0.846892	0.858693	0.0813983	3140
GATA1::TAL1	MA0140.2	-8.17667	1	0.755307	0.762971	0.0508281	3140
NR3C1	MA0113.3	-8.2012	1	0.717648	0.724813	0.0462165	3140
CEBPG	MA0838.1	-8.18023	1	0.768368	0.776252	0.0525944	3140
POU5F1B	MA0792.1	-8.17142	1	0.803187	0.814177	0.0753758	3140
CEBPA	MA0102.3	-8.18566	1	0.821438	0.829654	0.0561705	3140
MEF2A	MA0052.3	-8.18934	1	0.752134	0.764401	0.0839387	3140
Rarb	MA0857.1	-8.24069	1	0.677398	0.684769	0.0479615	3140
MEF2A	MA0052.2	-8.20669	1	0.776861	0.787411	0.0720392	3140
MIXL1	MA0662.1	-8.21579	1	0.84838	0.858686	0.0699689	3140
Nr2e1	MA0676.1	-8.21337	1	0.826261	0.835132	0.0604703	3140
Nobox	MA0125.1	-8.25709	1	0.847595	0.857666	0.068023	3140
NOTO	MA0710.1	-8.26239	1	0.840457	0.850411	0.0671905	3140
Hmx3	MA0898.1	-8.26929	1	0.726052	0.734566	0.0572904	3140
EN1	MA0027.2	-8.26074	1	0.855838	0.866209	0.0705595	3140
Msx3	MA0709.1	-8.26322	1	0.834092	0.846094	0.0815515	3140
FOXO6	MA0849.1	-8.27349	1	0.843588	0.854238	0.0723301	3140
FOS::JUN	MA0099.2	-8.3085	1	0.898262	0.905691	0.0498575	3140
HOXC13	MA0907.1	-8.33093	1	0.769135	0.778338	0.0616793	3140
PRRX1	MA0716.1	-8.34499	1	0.838889	0.8511	0.0820323	3140
MAF::NFE2	MA0501.1	-8.40166	1	0.737733	0.745201	0.0485006	3140
SOX9	MA0077.1	-8.38786	1	0.836221	0.844558	0.0552121	3140
FOXA1	MA0148.1	-8.3777	1	0.825945	0.835105	0.0618662	3140
ESX1	MA0644.1	-8.39272	1	0.834724	0.845	0.0683203	3140
FOXA1	MA0148.2	-8.38189	1	0.826787	0.835906	0.0615654	3140
LMX1A	MA0702.1	-8.39108	1	0.799786	0.812658	0.0860292	3140
Sox17	MA0078.1	-8.43822	1	0.866606	0.875568	0.0572052	3140
En1	MA0027.1	-8.4253	1	0.904275	0.908701	0.0287701	3140
Dlx4	MA0881.1	-8.41201	1	0.861284	0.871974	0.070787	3140
BSX	MA0876.1	-8.42539	1	0.876408	0.886713	0.0676634	3140
NR3C1	MA0113.2	-8.46905	1	0.825079	0.830937	0.0370611	3140
FOXL1	MA0033.2	-8.43811	1	0.872206	0.882995	0.0718143	3140
FOXO4	MA0848.1	-8.44187	1	0.85973	0.870152	0.0696335	3140
GSC	MA0648.1	-8.48133	1	0.824855	0.834226	0.0600165	3140
Dlx3	MA0880.1	-8.45851	1	0.859274	0.870493	0.0740519	3140
MEF2B	MA0660.1	-8.46193	1	0.736778	0.748607	0.0781465	3140
FOXF2	MA0030.1	-8.47147	1	0.767041	0.776726	0.063564	3140
HLTF	MA0109.1	-8.41461	1	0.940409	0.945025	0.0324561	3140
Lhx4	MA0704.1	-8.47091	1	0.841631	0.85233	0.0707924	3140
EMX1	MA0612.1	-8.48374	1	0.831354	0.841614	0.0672553	3140
Foxk1	MA0852.1	-8.4902	1	0.744153	0.755081	0.071919	3140
PDX1	MA0132.2	-8.51183	1	0.849807	0.862059	0.0790863	3140
DLX6	MA0882.1	-8.51496	1	0.858887	0.870017	0.0727925	3140
MEF2D	MA0773.1	-8.51669	1	0.746006	0.758459	0.0814958	3140
NEUROG2	MA0669.1	-8.56682	1	0.785051	0.792998	0.048829	3140
Gata1	MA0035.2	-8.538	1	0.839397	0.848037	0.0553495	3140
FOXA1	MA0148.3	-8.51898	1	0.804972	0.814281	0.0612118	3140
GBX2	MA0890.1	-8.51624	1	0.820908	0.832303	0.0753146	3140
HESX1	MA0894.1	-8.55631	1	0.815874	0.827755	0.0777128	3140
NKX6-2	MA0675.1	-8.55934	1	0.859187	0.870749	0.0756724	3140
LHX2	MA0700.1	-8.57063	1	0.810541	0.820869	0.0670456	3140
MAFG	MA0659.1	-8.61189	1	0.707466	0.713785	0.0390189	3140
LHX6	MA0658.1	-8.59877	1	0.797808	0.807847	0.0639052	3140
Nkx2-5	MA0063.1	-8.57858	1	0.90211	0.911595	0.0626491	3140
LMX1B	MA0703.1	-8.57562	1	0.841577	0.854109	0.0831699	3140
Dlx2	MA0885.1	-8.60487	1	0.848215	0.860951	0.0829021	3140
mix-a	MA0621.1	-8.62332	1	0.748444	0.763753	0.0976528	3140
VAX2	MA0723.1	-8.63215	1	0.84698	0.857197	0.0649957	3140
HOXA10	MA0899.1	-8.59689	1	0.813224	0.824456	0.0749402	3140
FOXI1	MA0042.1	-8.63433	1	0.819103	0.830674	0.0741236	3140
LHX9	MA0701.1	-8.62191	1	0.866846	0.877809	0.071981	3140
CEBPB	MA0466.2	-8.6536	1	0.80423	0.81247	0.0524825	3140
Foxj2	MA0614.1	-8.62421	1	0.842361	0.853818	0.0755784	3140
MAFF	MA0495.1	-8.67109	1	0.753689	0.76116	0.0471449	3140
Lhx3	MA0135.1	-8.67867	1	0.766713	0.77879	0.0762053	3140
Hmx2	MA0897.1	-8.66771	1	0.727802	0.736656	0.0570244	3140
POU2F1	MA0785.1	-8.67648	1	0.770373	0.781836	0.0738324	3140
GATA3	MA0037.1	-8.69911	1	0.93083	0.938086	0.0458487	3140
MNX1	MA0707.1	-8.693	1	0.84823	0.858714	0.0676894	3140
VSX1	MA0725.1	-8.72012	1	0.824505	0.837196	0.0798065	3140
VSX2	MA0726.1	-8.72415	1	0.808667	0.82148	0.0803725	3140
AR	MA0007.2	-8.75369	1	0.796762	0.804193	0.0458288	3140
ETV2	MA0762.1	-8.8168	1	0.796377	0.804459	0.0458161	3140
CEBPE	MA0837.1	-8.7519	1	0.812344	0.820527	0.0516704	3140
RAX	MA0718.1	-8.73183	1	0.826217	0.8381	0.0770382	3140
POU3F1	MA0786.1	-8.7596	1	0.766131	0.778471	0.0781115	3140
CEBPD	MA0836.1	-8.76919	1	0.796658	0.805095	0.0529783	3140
MAFK	MA0496.1	-8.80672	1	0.784494	0.792738	0.0507531	3140
MEF2C	MA0497.1	-8.79423	1	0.793318	0.804189	0.0688448	3140
VAX1	MA0722.1	-8.83305	1	0.847518	0.858368	0.0673524	3140
Foxa2	MA0047.2	-8.83625	1	0.807923	0.817697	0.0618206	3140
EMX2	MA0886.1	-8.85211	1	0.813518	0.824858	0.0712405	3140
Hoxc9	MA0485.1	-8.8692	1	0.772962	0.781995	0.0557645	3140
SRY	MA0084.1	-8.83859	1	0.86537	0.875714	0.0662835	3140
POU3F2	MA0787.1	-8.85979	1	0.756519	0.768693	0.0765322	3140
POU1F1	MA0784.1	-8.86115	1	0.722932	0.734709	0.0745265	3140
FOXC2	MA0846.1	-8.88741	1	0.808088	0.819788	0.0740482	3140
Arx	MA0874.1	-8.9174	1	0.724059	0.733884	0.0607263	3140
LBX1	MA0618.1	-8.91261	1	0.835753	0.846548	0.0672054	3140
BARX1	MA0875.1	-8.92752	1	0.868726	0.880249	0.0720313	3140
Pou5f1::Sox2	MA0142.1	-8.923	1	0.740359	0.749898	0.0601763	3140
FOXD1	MA0031.1	-8.95958	1	0.823897	0.835487	0.0724251	3140
Creb5	MA0840.1	-9.01104	1	0.746061	0.756625	0.0641948	3140
POU4F2	MA0683.1	-9.02649	1	0.67553	0.687112	0.0703785	3140
Six3	MA0631.1	-9.06524	1	0.722805	0.730942	0.0477796	3140
DUXA	MA0884.1	-9.0561	1	0.775518	0.785712	0.0609691	3140
Atoh1	MA0461.2	-9.09323	1	0.815374	0.823702	0.0484253	3140
Esrrg	MA0643.1	-9.10249	1	0.809442	0.818084	0.0504002	3140
CDX2	MA0465.1	-9.05076	1	0.813702	0.824659	0.0683153	3140
TP63	MA0525.2	-9.13505	1	0.689999	0.696991	0.0408292	3140
RUNX1	MA0002.1	-9.13153	1	0.828356	0.836536	0.0495675	3140
Hoxa9	MA0594.1	-9.14819	1	0.796177	0.805189	0.0538823	3140
FOXC1	MA0032.2	-9.13854	1	0.814814	0.826777	0.0734782	3140
VENTX	MA0724.1	-9.17459	1	0.81122	0.822323	0.0664481	3140
POU6F2	MA0793.1	-9.19431	1	0.789014	0.800472	0.0684134	3140
HOXB3	MA0903.1	-9.18423	1	0.860222	0.871383	0.0678734	3140
POU4F3	MA0791.1	-9.20565	1	0.697393	0.710463	0.0786792	3140
EVX2	MA0888.1	-9.21455	1	0.84114	0.851198	0.0599884	3140
CDX1	MA0878.1	-9.18083	1	0.83866	0.850641	0.0746369	3140
ETV3	MA0763.1	-9.3622	1	0.827107	0.835353	0.0408328	3140
JUN::FOS	MA0099.1	-9.21344	1	0.865774	0.875082	0.0563852	3140
MEIS1	MA0498.2	-9.24753	1	0.915868	0.925219	0.0553726	3140
POU3F3	MA0788.1	-9.26243	1	0.750443	0.763231	0.0767484	3140
SOX4	MA0867.1	-9.3068	1	0.636557	0.64651	0.058955	3140
Prrx2	MA0075.1	-9.29662	1	0.880727	0.8978	0.102637	3140
CEBPA	MA0102.2	-9.29088	1	0.86035	0.869471	0.0559182	3140
EVX1	MA0887.1	-9.3452	1	0.844029	0.854116	0.0591855	3140
FOXB1	MA0845.1	-9.34674	1	0.785306	0.797664	0.0732053	3140
POU4F1	MA0790.1	-9.36879	1	0.71695	0.730705	0.081113	3140
Twist2	MA0633.1	-9.42347	1	0.795592	0.806591	0.0624727	3140
Hoxd3	MA0912.1	-9.43436	1	0.776476	0.785978	0.0549542	3140
PBX1	MA0070.1	-9.45006	1	0.775933	0.78538	0.0544195	3140
JDP2	MA0655.1	-9.4516	1	0.758998	0.770201	0.0645649	3140
Sox11	MA0869.1	-9.43603	1	0.646863	0.657636	0.0635319	3140
POU6F1	MA0628.1	-9.48523	1	0.758019	0.772514	0.0832692	3140
JUND(var.2)	MA0492.1	-9.4866	1	0.785801	0.795351	0.0553306	3140
Dlx1	MA0879.1	-9.47376	1	0.845138	0.857343	0.0720171	3140
MEOX1	MA0661.1	-9.50586	1	0.825157	0.835899	0.0622459	3140
Sox5	MA0087.1	-9.50369	1	0.851731	0.865094	0.0794292	3140
HOXA2	MA0900.1	-9.52648	1	0.855239	0.865156	0.0581147	3140
Pdx1	MA0132.1	-9.5464	1	0.878663	0.893456	0.0862619	3140
GRHL1	MA0647.1	-9.57753	1	0.739625	0.749319	0.0549793	3140
HLF	MA0043.2	-9.57451	1	0.800981	0.810889	0.0571025	3140
HOXB2	MA0902.1	-9.56206	1	0.861348	0.872743	0.0667863	3140
Foxd3	MA0041.1	-9.56178	1	0.829637	0.841468	0.0694189	3140
CEBPB	MA0466.1	-9.58175	1	0.810023	0.820107	0.0580855	3140
HMBOX1	MA0895.1	-9.57603	1	0.823143	0.832496	0.0543627	3140
HOXD12	MA0873.1	-9.61412	1	0.774279	0.783911	0.0561405	3140
HNF1A	MA0046.1	-9.61737	1	0.763831	0.775208	0.0661572	3140
Foxa2	MA0047.1	-9.66104	1	0.830057	0.840055	0.0559144	3140
ZNF410	MA0752.1	-9.69912	1	0.670972	0.679596	0.0475152	3140
Foxq1	MA0040.1	-9.74775	1	0.79438	0.806768	0.0704777	3140
Cebpa	MA0102.1	-9.75822	1	0.843598	0.852286	0.0500259	3140
ATF4	MA0833.1	-9.78467	1	0.765223	0.773902	0.0485941	3140
DUX4	MA0468.1	-9.81722	1	0.788999	0.80053	0.0647198	3140
BHLHE22	MA0818.1	-9.86995	1	0.784186	0.793635	0.0502028	3140
ESRRB	MA0141.3	-9.90122	1	0.761933	0.772156	0.0547799	3140
FOXC1	MA0032.1	-9.72843	1	0.93173	0.940051	0.0535247	3140
Hoxd8	MA0910.1	-9.89126	1	0.711185	0.724354	0.0738077	3140
PAX3	MA0780.1	-9.90364	1	0.716217	0.730857	0.0815166	3140
SOX8	MA0868.1	-9.99565	1	0.631406	0.642006	0.0580161	3140
RORA	MA0071.1	-10.0032	1	0.813795	0.823957	0.0551922	3140
HOXA5	MA0158.1	-9.96311	1	0.91079	0.919291	0.0485114	3140
Phox2b	MA0681.1	-10.0087	1	0.759355	0.773419	0.0769309	3140
PAX7	MA0680.1	-9.99989	1	0.70583	0.720555	0.0814071	3140
Sox1	MA0870.1	-10.0297	1	0.682242	0.693054	0.0590478	3140
Esrra	MA0592.2	-10.1091	1	0.748382	0.758132	0.0504155	3140
MEOX2	MA0706.1	-10.0856	1	0.830522	0.842155	0.063786	3140
CUX1	MA0754.1	-10.1011	1	0.762943	0.776006	0.0709071	3140
Hoxb5	MA0904.1	-10.1105	1	0.735726	0.746681	0.0594461	3140
GATA2	MA0036.2	-10.1652	1	0.799416	0.809297	0.0528111	3140
HOXC12	MA0906.1	-10.1275	1	0.765281	0.775894	0.0590706	3140
PROP1	MA0715.1	-10.1654	1	0.72741	0.74363	0.0872807	3140
Hoxa11	MA0911.1	-10.1479	1	0.787764	0.797917	0.0560565	3140
PHOX2A	MA0713.1	-10.1882	1	0.758309	0.772761	0.077655	3140
ONECUT1	MA0679.1	-10.1675	1	0.718342	0.731651	0.0730696	3140
DMRT3	MA0610.1	-10.2034	1	0.775911	0.787812	0.0635433	3140
ONECUT2	MA0756.1	-10.2172	1	0.716377	0.729829	0.0738172	3140
HOXC11	MA0651.1	-10.2153	1	0.780595	0.791612	0.0606651	3140
DBP	MA0639.1	-10.257	1	0.770462	0.782164	0.0625094	3140
CUX2	MA0755.1	-10.277	1	0.747847	0.76077	0.0688694	3140
RORA(var.2)	MA0072.1	-10.2811	1	0.755237	0.765513	0.0551663	3140
BHLHE23	MA0817.1	-10.3494	1	0.750657	0.761458	0.055257	3140
JUN	MA0488.1	-10.3463	1	0.784491	0.795097	0.0562593	3140
ONECUT3	MA0757.1	-10.3418	1	0.710763	0.725355	0.0790583	3140
HNF1B	MA0153.2	-10.4072	1	0.710285	0.724146	0.0724761	3140
HNF1A	MA0046.2	-10.41	1	0.719771	0.733739	0.0735308	3140
NKX3-1	MA0124.1	-10.4292	1	0.819639	0.834028	0.0757876	3140
Arid5a	MA0602.1	-10.4632	1	0.768686	0.783436	0.0775211	3140
TEF	MA0843.1	-10.4736	1	0.759667	0.7713	0.0610856	3140
HOXC10	MA0905.1	-10.4711	1	0.816187	0.828363	0.0656798	3140
FOXL1	MA0033.1	-10.6327	1	0.883917	0.896708	0.066793	3140
NFIL3	MA0025.1	-10.6656	1	0.774351	0.787636	0.0687819	3140
SOX21	MA0866.1	-10.6861	1	0.680626	0.692206	0.0601658	3140
OLIG1	MA0826.1	-10.7601	1	0.76355	0.774626	0.0544519	3140
Mecom	MA0029.1	-10.738	1	0.73899	0.750613	0.0593532	3140
HNF1B	MA0153.1	-10.7846	1	0.767581	0.779414	0.058998	3140
Neurog1	MA0623.1	-10.8762	1	0.84691	0.854465	0.0365304	3140
HOXD11	MA0908.1	-10.8575	1	0.799666	0.812344	0.0661647	3140
OLIG3	MA0827.1	-10.9793	1	0.809801	0.819464	0.0466228	3140
GATA5	MA0766.1	-10.9653	1	0.865257	0.878	0.0636884	3140
MAFG::NFE2L1	MA0089.1	-11.0755	1	0.924149	0.934827	0.0533158	3140
YY1	MA0095.2	-11.2584	1	0.782885	0.794899	0.051086	3140
OLIG2	MA0678.1	-11.5347	1	0.782582	0.793796	0.0516731	3140
HLF	MA0043.1	-11.5088	1	0.822836	0.832465	0.0464234	3140
YY1	MA0095.1	-11.5074	1	0.936286	0.947913	0.061188	3140

Degrees of freedom: 35397
